<?xml version="1.0" standalone="no"?>
<!DOCTYPE svg PUBLIC "-//W3C//DTD SVG 1.1//EN" "http://www.w3.org/Graphics/SVG/1.1/DTD/svg11.dtd" >
<svg xmlns="http://www.w3.org/2000/svg" xmlns:xlink="http://www.w3.org/1999/xlink" version="1.1">
<metadata></metadata>
<defs>
<font id="josefin_sansregular" horiz-adv-x="1087" >
<font-face units-per-em="2048" ascent="1536" descent="-512" />
<missing-glyph horiz-adv-x="503" />
<glyph horiz-adv-x="0" />
<glyph horiz-adv-x="0" />
<glyph unicode="&#xd;" horiz-adv-x="614" />
<glyph unicode=" "  horiz-adv-x="503" />
<glyph unicode="&#x09;" horiz-adv-x="503" />
<glyph unicode="&#xa0;" horiz-adv-x="503" />
<glyph unicode="!" horiz-adv-x="518" d="M178 111q0 39 24.5 61.5t57.5 22.5q31 0 56.5 -22.5t25.5 -61.5q0 -35 -25.5 -59.5t-56.5 -24.5q-33 0 -57.5 24.5t-24.5 59.5zM199 342v1206h120v-1206h-120z" />
<glyph unicode="&#x22;" horiz-adv-x="688" d="M147 975v512h123l-8 -512h-115zM424 975v512h121l-8 -512h-113z" />
<glyph unicode="#" horiz-adv-x="1177" d="M55 416q4 29 7.5 58.5t5.5 57.5h211q8 66 14 130.5t16 130.5h-207l11 116h209l53 418h119q-12 -104 -24.5 -207.5t-27.5 -210.5h260l52 418h120q-14 -104 -26 -207.5t-25 -210.5h236l-12 -116h-238l-31 -261h236l-15 -116h-235l-49 -416h-121l49 416h-258 q-12 -104 -25.5 -208t-23.5 -208h-121q12 104 24.5 207.5t22.5 208.5h-207zM397 532h260l31 261h-258q-8 -66 -15 -130.5t-18 -130.5z" />
<glyph unicode="$" horiz-adv-x="1130" d="M78 119l63 123q72 -47 175.5 -83t203.5 -38v620q-72 27 -138.5 55.5t-118.5 69.5t-84 96.5t-32 133.5q0 68 26 130t74 112.5t116.5 84t156.5 43.5v131h86v-127q55 -2 113.5 -11t109 -22.5t90 -27t62.5 -23.5l-51 -112q-72 29 -158 48t-166 21v-497q76 -29 154 -62.5 t141.5 -83t102 -120t38.5 -174.5q0 -180 -118.5 -290t-317.5 -128v-127h-86v123q-86 0 -156.5 16t-127 37.5t-96.5 44t-62 37.5zM287 1108q0 -45 18.5 -79t49 -61.5t73.5 -49t92 -39.5v456q-111 -18 -172 -81.5t-61 -145.5zM606 127q51 8 104.5 28.5t96.5 54.5t70.5 83 t27.5 115q0 61 -24.5 107t-65.5 82t-95 62.5t-114 49.5v-582z" />
<glyph unicode="%" horiz-adv-x="1380" d="M88 803q0 51 20.5 96t54.5 79t80 53.5t97 19.5q49 0 95 -19.5t80 -53.5t54.5 -79t20.5 -96q0 -53 -20.5 -98.5t-54.5 -78t-80 -52t-95 -19.5q-51 0 -97 19.5t-80 52t-54.5 78t-20.5 98.5zM209 803q0 -55 37 -93t94 -38q55 0 92 38t37 93t-37 92t-92 37q-57 0 -94 -37 t-37 -92zM315 0q154 260 307.5 516t307.5 516h131q-154 -260 -307.5 -516t-307.5 -516h-131zM799 231q0 51 19.5 95.5t53 78t79.5 53t98 19.5q51 0 96 -19.5t78.5 -53t54 -77.5t20.5 -96q0 -53 -20.5 -98t-54 -79t-78.5 -53t-96 -19t-97.5 19t-80 53t-53 79t-19.5 98z M918 229q0 -55 36.5 -93t94.5 -38q57 0 94 38t37 93t-37 93t-94 38t-94 -38t-37 -93z" />
<glyph unicode="&#x26;" horiz-adv-x="1333" d="M92 403q0 82 30 154t81 127t120.5 93t147.5 54q-47 63 -80 110.5t-45 72.5q-29 55 -49.5 106t-20.5 117q0 70 28 127t74 97t107.5 61.5t130.5 21.5q90 2 166 -25.5t123 -58.5q0 -2 -9 -15t-20.5 -28.5t-20.5 -28t-9 -14.5q-41 23 -86 40.5t-98 21.5q-51 2 -98.5 -10.5 t-84.5 -39t-59.5 -66.5t-22.5 -93q0 -33 8.5 -62.5t17.5 -53.5t17.5 -39t10.5 -17l516 -676l176 461h121l-217 -564l210 -276h-135q-2 0 -40 46t-97 122q-63 -82 -173 -133t-245 -51q-104 0 -191 31.5t-150.5 89t-98.5 133t-35 165.5zM207 408q0 -76 30.5 -134.5t81 -98.5 t117 -60.5t137.5 -20.5q51 0 103.5 12.5t97.5 34t82 51t59 64.5q-86 109 -183 232.5t-183 238.5q-61 -2 -122.5 -25.5t-111 -66.5t-79 -100.5t-29.5 -126.5z" />
<glyph unicode="'" horiz-adv-x="415" d="M147 975v512h125l-8 -512h-117z" />
<glyph unicode="(" horiz-adv-x="569" d="M92 602q0 154 29 294t77 261t108.5 218.5t125.5 164.5l98 -47q-59 -68 -116.5 -161t-102.5 -206.5t-71.5 -244.5t-26.5 -279q0 -147 26.5 -279.5t71.5 -246t102.5 -206.5t116.5 -161l-98 -47q-66 70 -126 167t-108 217t-77 260t-29 296z" />
<glyph unicode=")" horiz-adv-x="569" d="M41 -297q59 68 116.5 161t101.5 206.5t71.5 244.5t27.5 279q0 147 -27.5 279.5t-71.5 246t-101.5 206.5t-116.5 161q25 12 49.5 24.5t48.5 26.5q66 -70 127.5 -167t108.5 -218t75.5 -261t28.5 -294q0 -156 -28.5 -296t-75.5 -260t-108.5 -217t-127.5 -167 q-25 12 -49 23.5t-49 21.5z" />
<glyph unicode="*" horiz-adv-x="800" d="M123 1075l188 105l-186 110q16 35 41 72l188 -111v224h90q0 -55 -1 -110.5t-1 -113.5l193 109q10 -16 20.5 -34.5t20.5 -37.5l-193 -110q47 -27 95.5 -53.5t95.5 -55.5q-12 -18 -23.5 -37.5t-23.5 -40.5l-187 111l-4 -213h-82v213q-47 -27 -92 -52.5t-92 -54.5z" />
<glyph unicode="+" horiz-adv-x="935" d="M96 420v115h312v313h120v-313h312v-115h-312v-316h-120v316h-312z" />
<glyph unicode="," horiz-adv-x="471" d="M31 -248q41 109 80 213.5t79 212.5h127l-176 -426h-110z" />
<glyph unicode="-" horiz-adv-x="643" d="M131 365v116h381v-116h-381z" />
<glyph unicode="." horiz-adv-x="425" d="M131 84q0 35 24.5 59.5t57.5 24.5q31 0 56.5 -24.5t25.5 -59.5q0 -37 -25.5 -60.5t-56.5 -23.5q-33 0 -57.5 23.5t-24.5 60.5z" />
<glyph unicode="/" horiz-adv-x="854" d="M80 -39q145 393 287.5 779t285.5 780h121q-145 -393 -286.5 -779.5t-286.5 -779.5h-121z" />
<glyph unicode="0" horiz-adv-x="1341" d="M117 676q0 135 36.5 259t108.5 218t176.5 149.5t237.5 55.5q137 0 239.5 -59.5t172 -155.5t103.5 -220t32 -255q0 -154 -44 -280t-120 -216t-176.5 -139t-216.5 -49q-115 0 -214.5 50t-174 140t-117.5 217t-43 285zM238 674q0 -123 34.5 -228.5t93 -181.5t136.5 -120 t164 -44t164.5 42t139 118t97.5 181.5t37 228.5q0 106 -27.5 209.5t-82 183.5t-134.5 129t-186 49q-109 0 -190 -49t-135 -130t-82.5 -182.5t-28.5 -205.5z" />
<glyph unicode="1" horiz-adv-x="610" d="M86 1225v116h297v-1341h-123v1225h-174z" />
<glyph unicode="2" horiz-adv-x="1081" d="M109 950q0 82 26.5 157t78.5 130t129 88t175 33q90 0 164 -33t127 -89t82 -133t29 -163q0 -109 -45.5 -214t-117 -206.5t-161.5 -202t-182 -200.5h590v-117h-881q129 127 251 250t216 237.5t151.5 222t57.5 205.5q0 90 -28 152.5t-70 100.5t-91 55.5t-92 17.5 q-86 0 -142.5 -30.5t-89 -74.5t-45 -95.5t-12.5 -90.5q0 -72 21.5 -127t60.5 -96l-71 -72q-31 23 -55.5 56.5t-41 73.5t-25.5 82t-9 83z" />
<glyph unicode="3" horiz-adv-x="970" d="M88 127l88 84q41 -51 100.5 -81t131.5 -30q66 0 125 26t103 70t69.5 101t25.5 123q0 68 -25.5 126t-69.5 101t-103.5 67.5t-124.5 24.5q-73 0 -132 -41q86 133 179.5 263.5t179.5 263.5h-490v116h689q-86 -125 -173.5 -249.5t-173.5 -251.5q76 -14 142.5 -50t116 -91.5 t77 -126t27.5 -152.5q0 -90 -35 -169t-95.5 -138.5t-140 -94t-169.5 -34.5q-96 0 -179.5 38.5t-142.5 104.5z" />
<glyph unicode="4" horiz-adv-x="1081" d="M16 358q190 248 390 501t391 499v-883h200v-117h-200v-358h-121v358h-660zM250 475h426v555q-49 -63 -103.5 -134t-109.5 -142.5t-109.5 -143t-103.5 -135.5z" />
<glyph unicode="5" horiz-adv-x="952" d="M104 106l89 80q41 -41 95 -63.5t118 -22.5q66 0 125 26t103 70t69.5 101t25.5 123t-25.5 124t-69.5 101t-103.5 67.5t-124.5 24.5q-61 0 -122 -18.5t-106 -63.5v686h594v-116h-489v-400q29 12 58.5 20.5t66.5 8.5q96 0 177 -34t139 -92t91 -137t33 -167q0 -92 -35 -172 t-95.5 -140.5t-141 -94t-170.5 -33.5q-86 0 -164 31.5t-138 90.5z" />
<glyph unicode="6" horiz-adv-x="1095" d="M109 420q0 104 31.5 198.5t85 177.5t123 156.5t145 138t150.5 120t140 102.5l76 -94q-92 -61 -176 -127t-151.5 -127.5t-116.5 -115.5t-72 -95q35 45 88 72.5t115 27.5q90 0 170 -34t140.5 -93t95 -138t34.5 -169t-34.5 -169t-94 -138.5t-139.5 -94t-170 -34.5 q-82 0 -161 29.5t-141.5 85t-100 136.5t-37.5 185zM231 420q0 -66 25 -124t68 -101t100 -69t123 -26t124 26t102 69t69.5 101t25.5 124t-25.5 124t-69.5 101t-102.5 67.5t-123.5 24.5q-66 0 -123 -24.5t-100 -67.5t-68 -101t-25 -124z" />
<glyph unicode="7" horiz-adv-x="944" d="M72 1225v116h843q-145 -346 -283 -674.5t-278 -666.5h-139q123 293 253 603t259 622h-655z" />
<glyph unicode="8" horiz-adv-x="1093" d="M109 416q0 74 20.5 137t56 112.5t83.5 85t104 54.5q-72 37 -109 99.5t-37 131.5q0 70 24.5 128.5t67.5 101.5t100.5 67.5t123.5 24.5t123 -24.5t100 -67.5t68.5 -102.5t25.5 -127.5q0 -72 -37 -132t-106 -99q55 -18 104 -54t86 -86.5t58.5 -113t21.5 -135.5 q0 -88 -32.5 -166t-92 -137.5t-140.5 -94t-177 -34.5t-176 34.5t-138.5 94t-90 137.5t-31.5 166zM231 420q0 -66 25 -123t67 -101t98 -70t122 -26t125 26t103 70t69.5 101t25.5 123t-25.5 123t-68.5 100t-101.5 68.5t-123.5 25.5q-66 0 -123 -24.5t-100 -67.5t-68 -100 t-25 -125zM344 1036q0 -78 59.5 -130t143.5 -52t141 52t57 130q0 41 -15 79t-41.5 65.5t-63.5 44t-78 16.5t-78 -16.5t-64.5 -44t-44 -65.5t-16.5 -79z" />
<glyph unicode="9" horiz-adv-x="1095" d="M109 877q0 90 34.5 168.5t95 138t140.5 94.5t170 35q80 0 158.5 -30t141 -85t100.5 -136t38 -185q0 -158 -68.5 -290t-171 -243t-220 -200t-216.5 -160q-18 23 -37.5 47t-35.5 47q92 61 176 125.5t151.5 126t116.5 117t72 96.5q-35 -47 -88.5 -74t-116.5 -27 q-90 0 -170 34t-140.5 92.5t-95 138t-34.5 170.5zM229 877q0 -66 26 -124.5t70 -101.5t102 -67.5t124 -24.5t123 24.5t100 67.5t67.5 101.5t24.5 124.5t-24.5 124t-67.5 101t-100.5 68.5t-122.5 25.5q-66 0 -124 -25.5t-102 -68.5t-70 -101.5t-26 -123.5z" />
<glyph unicode=":" horiz-adv-x="428" d="M131 84q0 35 25.5 59.5t58.5 24.5q31 0 56.5 -24.5t25.5 -59.5q0 -37 -25.5 -60.5t-56.5 -23.5q-33 0 -58.5 23.5t-25.5 60.5zM131 625q0 35 25.5 59.5t58.5 24.5q31 0 56.5 -25t25.5 -59q0 -37 -25.5 -60.5t-56.5 -23.5q-33 0 -58.5 23.5t-25.5 60.5z" />
<glyph unicode=";" horiz-adv-x="509" d="M35 -248q41 109 80 213.5t80 212.5h127q-47 -109 -90.5 -213t-88.5 -213h-108zM193 600q0 35 24.5 59.5t56.5 24.5q31 0 56.5 -24.5t25.5 -59.5q0 -37 -25.5 -60.5t-56.5 -23.5q-33 0 -57 23.5t-24 60.5z" />
<glyph unicode="&#x3c;" horiz-adv-x="1144" d="M74 492q227 129 450.5 260t450.5 260v-160q-156 -90 -312.5 -179t-312.5 -181q156 -92 312.5 -181.5t312.5 -179.5v-162z" />
<glyph unicode="=" horiz-adv-x="1335" d="M145 260v117h1045v-117h-1045zM145 659v119h1045v-119h-1045z" />
<glyph unicode="&#x3e;" horiz-adv-x="1144" d="M170 -31v162l627 361l-627 360v160q227 -129 450.5 -260t450.5 -260z" />
<glyph unicode="?" horiz-adv-x="976" d="M74 1210q16 49 47 102.5t79 97.5t115.5 72.5t159.5 28.5q86 0 160 -31.5t128 -87t86 -129t32 -155.5q0 -113 -54.5 -198t-148.5 -154q-33 -25 -66.5 -45.5t-61.5 -47t-45.5 -65.5t-17.5 -98v-162h-120v201q0 66 21.5 106.5t57 71.5t81.5 58.5t94 68.5q72 55 104.5 121.5 t32.5 142.5q0 61 -21.5 113.5t-58.5 91.5t-89 60.5t-114 21.5q-119 0 -190.5 -58.5t-106.5 -162.5zM344 102q0 35 25.5 59.5t56.5 24.5q29 0 55.5 -24.5t26.5 -59.5q0 -37 -26.5 -60.5t-55.5 -23.5q-31 0 -56.5 24t-25.5 60z" />
<glyph unicode="@" horiz-adv-x="1916" d="M96 406q0 164 61.5 317.5t175 271t274.5 188t360 70.5q188 0 341.5 -65.5t261 -176t166 -256t58.5 -302.5q0 -121 -26.5 -206t-72.5 -140.5t-107.5 -81t-129.5 -25.5h-219v84q0 23 1 43t1 39q-14 -35 -43 -66.5t-71 -58.5t-95 -42t-117 -15q-92 0 -170.5 33.5t-135 91 t-89.5 134.5t-33 163q0 88 34 166.5t92.5 138t136 93.5t165.5 34q61 0 114.5 -16.5t95.5 -44t71 -61.5t43 -67l8 170h105v-715h112q39 0 78 18.5t71 60.5t51 107.5t19 160.5q0 137 -51 264t-144 222t-226.5 152.5t-296.5 57.5q-180 0 -320.5 -64.5t-238 -169t-148.5 -238.5 t-51 -274q0 -152 58.5 -285.5t157.5 -234t234.5 -158t288.5 -57.5q123 0 234.5 37t205.5 102l66 -77q-104 -82 -238.5 -125t-271.5 -43q-174 0 -327.5 66.5t-269.5 181t-182.5 268t-66.5 330.5zM600 412q0 -68 24.5 -125.5t67.5 -100.5t101.5 -67.5t126.5 -24.5t126 24.5 t101 67.5t67.5 100.5t24.5 125.5q0 66 -24.5 123t-67.5 100t-101.5 67.5t-125.5 24.5q-68 0 -126.5 -24.5t-101.5 -66.5t-67.5 -99t-24.5 -125z" />
<glyph unicode="A" horiz-adv-x="1323" d="M31 0q31 74 82 195.5t110.5 267t123 302.5t122.5 302t109.5 266t83.5 197q31 -76 82 -197t110 -266t123.5 -302t124 -302.5t110 -267t82.5 -195.5h-141q-41 94 -96.5 231.5t-114.5 290.5h-561q-59 -154 -114.5 -291t-96.5 -231h-139zM428 643h467q-61 154 -116.5 293 t-96.5 235q-4 8 -10 28t-10 36q-4 -16 -10.5 -36t-10.5 -28q-41 -96 -97.5 -235t-115.5 -293z" />
<glyph unicode="B" horiz-adv-x="1189" d="M209 0v1462h342q102 0 185 -20.5t142.5 -65.5t91 -116.5t31.5 -174.5q0 -59 -12 -113t-38.5 -100.5t-69.5 -80t-107 -52.5q57 -12 111.5 -38.5t96.5 -69.5t67.5 -103.5t25.5 -140.5q0 -98 -39 -172t-103.5 -121t-148.5 -70.5t-174 -23.5h-401zM348 127h250 q70 0 131.5 17.5t107.5 51t72.5 85t26.5 118.5q0 74 -31 127.5t-83 86t-118.5 48t-136.5 15.5h-219v-549zM348 797h246q133 0 200.5 78.5t67.5 199.5q0 137 -82 198.5t-213 61.5h-219v-538z" />
<glyph unicode="C" horiz-adv-x="1320" d="M102 721q0 162 59.5 301t162 240.5t239.5 159t293 57.5q55 0 111.5 -7.5t107.5 -21.5t94 -32.5t74 -41.5q-10 -16 -16 -26.5t-12.5 -21.5t-14.5 -25.5t-20 -36.5q-66 41 -153 61.5t-167 20.5q-129 0 -241.5 -49.5t-195.5 -134.5t-131 -196.5t-48 -236.5q0 -119 43 -228.5 t122.5 -192.5t190.5 -133t246 -50q59 0 114.5 9t102.5 24.5t83 32t56 32.5l64 -127q-66 -41 -174.5 -77.5t-251.5 -36.5q-170 0 -306.5 59t-231.5 160.5t-147.5 234.5t-52.5 283z" />
<glyph unicode="D" horiz-adv-x="1462" d="M211 0v1462h340q221 0 374.5 -67.5t250 -174t139.5 -238.5t43 -261q0 -166 -59.5 -299t-160 -227.5t-233.5 -144.5t-282 -50h-412zM352 133h256q127 0 238.5 41t194.5 118t130.5 187.5t47.5 249.5q0 127 -44.5 236.5t-126 189.5t-196.5 126t-258 46h-242v-1194z" />
<glyph unicode="E" horiz-adv-x="1253" d="M211 0v1462h922v-127h-783v-534h701v-131h-701v-539h811v-131h-950z" />
<glyph unicode="F" horiz-adv-x="1132" d="M211 0v1462h838v-129h-699v-553h617v-131h-617v-649h-139z" />
<glyph unicode="G" horiz-adv-x="1398" d="M102 713q0 166 60.5 306t164 242.5t242 160t291.5 57.5q104 0 212 -27t192 -78l-70 -114q-68 41 -159 64.5t-177 23.5q-125 0 -236.5 -49.5t-196.5 -133.5t-134 -198.5t-49 -243.5q0 -123 44 -233.5t123.5 -193.5t192.5 -131t250 -48q68 0 142.5 15t142.5 46v369h-316 v123h445v-582q-84 -49 -190.5 -76.5t-223.5 -27.5q-172 0 -310.5 56t-235.5 154.5t-150.5 231.5t-53.5 287z" />
<glyph unicode="H" horiz-adv-x="1531" d="M209 0v1462h141v-659h832v659h143v-187.5v-253.5t-1 -288.5t-1 -289t-1 -255t-1 -188.5h-139v670h-832v-670h-141z" />
<glyph unicode="I" horiz-adv-x="559" d="M209 0v1462h141v-1462h-141z" />
<glyph unicode="J" horiz-adv-x="608" d="M-74 -168q74 4 135.5 31.5t105.5 79t69.5 127t25.5 174.5v1218h141v-1224q0 -127 -36.5 -226.5t-101 -167t-152 -104.5t-187.5 -39v131z" />
<glyph unicode="K" horiz-adv-x="1275" d="M209 0v1462h153v-614q0 -16 -2 -32.5t-4 -35.5q10 14 19.5 24.5t19.5 24.5q164 154 321.5 316t321.5 317h181q-150 -152 -299.5 -304t-301.5 -304q172 -219 330 -427t328 -427h-176q-154 195 -295 378t-295 380q-37 -37 -74 -72t-76 -70q0 -160 1 -308t1 -308h-153z" />
<glyph unicode="L" horiz-adv-x="1155" d="M209 0v1462h139v-1329h778v-133h-917z" />
<glyph unicode="M" horiz-adv-x="1839" d="M209 0v1528q39 -57 96 -140t125 -179.5t139.5 -197t138 -193.5t122 -171t90.5 -127q18 27 66 96.5t112.5 161.5t140.5 199.5t148.5 211t137 192.5t105.5 147v-1528h-147v1042q0 18 2 39t2 35q-35 -49 -83 -117.5t-101.5 -146.5t-108.5 -159t-106.5 -156.5t-95.5 -141 t-72 -108.5q-29 37 -78 105.5t-107.5 153.5t-122 176t-118 171t-96.5 140.5t-56 82.5q0 -14 3 -34.5t3 -39.5v-1042h-139z" />
<glyph unicode="N" horiz-adv-x="1662" d="M209 0v1530q59 -76 145 -174.5t187.5 -209t208 -227t206 -226t185.5 -207t141 -169.5q4 -10 16.5 -25.5t22.5 -29.5l-6 68v1132h139v-1530q-59 72 -146 171.5t-188.5 212t-209 230.5t-208 230.5t-183.5 209.5t-136 169q-6 8 -18.5 23.5t-22.5 29.5l6 -65v-1143h-139z" />
<glyph unicode="O" horiz-adv-x="1695" d="M100 729q0 154 58.5 290t160 238.5t237.5 162t290 59.5t291 -59.5t238.5 -162t160.5 -238.5t59 -290t-59 -290t-160.5 -237.5t-239 -159.5t-290.5 -58q-154 0 -290 58t-237.5 159.5t-160 237.5t-58.5 290zM240 729q0 -127 48 -238.5t130 -194.5t192.5 -131t235.5 -48 t236.5 48t194.5 131t131 194.5t48 238.5t-48 238.5t-131 195.5t-194.5 132t-236.5 48q-127 0 -236.5 -48t-192.5 -132t-130 -195.5t-47 -238.5z" />
<glyph unicode="P" horiz-adv-x="1128" d="M211 0v1462h354q92 0 178 -25.5t153 -78.5t106.5 -133t39.5 -191q0 -84 -26.5 -165t-82.5 -143t-146.5 -101t-217.5 -39h-219v-586h-139zM350 719h217q98 0 164 31.5t103.5 80t53 102.5t15.5 99q0 55 -21.5 109.5t-62.5 96.5t-104.5 67.5t-145.5 25.5h-219v-612z" />
<glyph unicode="Q" horiz-adv-x="1705" d="M100 729q0 154 58.5 290t160 238.5t237.5 162t290 59.5t291 -59.5t238.5 -162t160.5 -238.5t59 -290q0 -190 -89 -349t-236 -257l372 10v-133h-641q-39 -8 -76.5 -12t-78.5 -4q-154 0 -290 58t-237.5 159.5t-160 237.5t-58.5 290zM240 729q0 -127 48 -238.5t130 -194.5 t192.5 -131t235.5 -48t236.5 48t194.5 131t131 194.5t48 238.5t-48 238.5t-131 195.5t-194.5 132t-236.5 48t-235.5 -48t-192.5 -132t-130 -195.5t-48 -238.5z" />
<glyph unicode="R" horiz-adv-x="1234" d="M209 0v1462h354q92 0 178 -25.5t153 -78.5t106.5 -133t39.5 -191q0 -123 -55 -233.5t-182 -169.5q18 -31 49 -82t67.5 -111.5t76.5 -126t77 -125t67.5 -108.5t49.5 -78h-170q-16 25 -43 68t-59.5 96t-69.5 112.5t-72 117t-66.5 108.5t-54.5 88q-20 -4 -42.5 -4h-45.5 h-219v-586h-139zM348 719h217q98 0 164 32.5t103.5 81t53 102.5t15.5 99q0 55 -21.5 108.5t-62.5 95.5t-104.5 67.5t-145.5 25.5h-219v-612z" />
<glyph unicode="S" horiz-adv-x="1128" d="M74 119l63 123q37 -23 83 -45.5t96.5 -39t103.5 -26.5t104 -10q55 0 122 15.5t123 50t94 89t38 132.5q0 96 -56.5 155.5t-140 101.5t-182 74.5t-182.5 76.5t-140.5 109.5t-56.5 170.5q0 74 30 142.5t87 119.5t139 81.5t185 30.5q57 0 117.5 -9t113.5 -22.5t96 -28 t66 -24.5l-51 -112q-72 29 -159 49t-169 20q-74 0 -132 -18t-99 -51t-62.5 -75t-21.5 -91q0 -59 32.5 -101t86 -73t121 -56.5t138 -52t138 -60.5t121 -83t86 -116.5t32.5 -164.5q0 -96 -34.5 -172.5t-100 -131t-161 -84t-216.5 -29.5q-86 0 -158.5 15t-129 36.5t-98.5 44 t-66 39.5z" />
<glyph unicode="T" horiz-adv-x="1099" d="M92 1329v133h916v-133h-390v-1329h-141v1329h-385z" />
<glyph unicode="U" horiz-adv-x="1425" d="M193 498v964h139v-958q0 -88 28.5 -160t80 -122t121 -77.5t151.5 -27.5q80 0 149.5 27.5t120.5 77.5t81 122t30 160v958h139v-964q0 -121 -40 -216.5t-110.5 -161t-165.5 -101t-204 -35.5q-111 0 -206 35.5t-165 101t-109.5 161t-39.5 216.5z" />
<glyph unicode="V" horiz-adv-x="1327" d="M33 1462h139q29 -70 66.5 -164t80.5 -200.5t88.5 -220t88.5 -220t80.5 -201t66.5 -163.5l21 -66l20 66q29 70 66.5 164t80.5 200.5t88.5 220t88.5 220t80.5 201t66.5 163.5h141q-33 -76 -83 -196.5t-109.5 -266t-124 -302t-123.5 -301t-110.5 -266.5t-81.5 -198 q-31 76 -82.5 198t-110.5 266.5t-122.5 301t-123 302t-111 266t-81.5 196.5z" />
<glyph unicode="W" horiz-adv-x="1933" d="M39 1458h158q39 -100 84 -216t90 -232.5t87 -228t76.5 -205t58 -161t32.5 -96.5l16 -61q0 6 8 29.5t10 29.5t13.5 37t28 77t38 103.5t43.5 116.5q53 139 117 312q-45 127 -82 231q-16 45 -31.5 88t-28 80t-21.5 62.5t-11 33.5h135q96 -248 178 -469q35 -94 72 -192.5 t69.5 -187.5t60.5 -164.5t44 -125.5q4 -16 8 -30.5t8 -30.5l17 61q6 31 30.5 99.5t59.5 162t78 206t88 228t91 230.5t85 213h147q-51 -127 -109 -274.5t-117.5 -300t-117 -300t-106.5 -274.5t-87 -225t-56 -150l-320 826q-4 8 -9 20.5t-7 22.5q-2 -4 -4 -12.5t-5 -14.5 l-4 -16q-61 -160 -120 -311q-25 -66 -52.5 -134.5t-54.5 -136t-51.5 -131t-42.5 -115.5q-154 385 -297 764t-297 762z" />
<glyph unicode="X" horiz-adv-x="1218" d="M37 0q25 37 62.5 96.5t83.5 131t95.5 147.5t94.5 147.5t83.5 131t61.5 96.5q-23 35 -59.5 91t-79.5 124.5t-91 141.5t-91 140.5t-80 123.5t-60 91h172q31 -49 79 -124.5t100.5 -157.5t100.5 -159t81 -126l24 -49l25 49q31 49 78 126t98 159t98.5 157.5t77.5 124.5h166 l-457 -719q25 -37 63 -96t84 -130t95 -146.5t95 -146t84 -129t63 -95.5h-174l-334 524q-14 20 -36 58.5t-38 60.5q-6 -14 -13 -28.5t-11 -18.5l-369 -596h-172z" />
<glyph unicode="Y" horiz-adv-x="1302" d="M37 1462h158q37 -61 90 -155.5t113.5 -200t121 -214t109.5 -198.5l24 -61l25 61q51 90 110.5 198.5t118 214t110.5 200t89 155.5h160l-543 -952v-510h-141v510q-27 45 -71 120t-95 166t-107.5 190t-107.5 190.5t-94.5 166t-69.5 119.5z" />
<glyph unicode="Z" horiz-adv-x="1298" d="M25 0q51 74 126.5 183.5t163.5 236.5t181.5 262t181.5 261t164 232.5t127 176.5h-721q-66 0 -110 26.5t-44 85.5v72h129v-27q0 -29 14.5 -38t49.5 -9h919l-938 -1327h977v-135h-1220z" />
<glyph unicode="[" horiz-adv-x="634" d="M195 -307v1847h374v-117h-254v-1613h254v-117h-374z" />
<glyph unicode="\" horiz-adv-x="868" d="M80 1520h133l575 -1559h-133z" />
<glyph unicode="]" horiz-adv-x="634" d="M66 -190h253v1613h-253v117h374v-1847h-374v117z" />
<glyph unicode="^" horiz-adv-x="788" d="M147 989l248 373q61 -92 123 -186.5t125 -186.5h-90q-16 25 -36.5 53.5t-42 59.5t-42 60.5t-37.5 51.5q-16 -23 -36.5 -52t-43 -60t-43 -59.5t-36.5 -53.5h-89z" />
<glyph unicode="_" d="M131 0v117h825v-117h-825z" />
<glyph unicode="`" horiz-adv-x="413" d="M-78 1264h123q47 -70 93 -138.5t93 -136.5h-90z" />
<glyph unicode="a" horiz-adv-x="1085" d="M80 406q0 88 33.5 166.5t92 138t136.5 93.5t166 34q61 0 114.5 -16.5t95.5 -44t70.5 -61.5t42.5 -67l9 170h104v-819h-113v84q0 23 1.5 43t1.5 39q-14 -35 -43 -66.5t-71 -58.5t-95.5 -42t-116.5 -15q-92 0 -171 33.5t-135.5 91t-89 134.5t-32.5 163zM193 412 q0 -68 24.5 -125.5t67.5 -100.5t101 -67.5t126 -24.5t126 24.5t101 67.5t67.5 100.5t24.5 125.5q0 66 -24.5 123t-67.5 100t-101 67.5t-126 24.5t-126 -24.5t-101 -66.5t-67.5 -99t-24.5 -125z" />
<glyph unicode="b" d="M141 0v1569h113v-922q39 76 125 133.5t205 57.5q92 0 168.5 -32t133 -88t88.5 -135t32 -173q0 -90 -32 -168t-89.5 -135.5t-135 -90t-169.5 -32.5q-115 0 -204 53t-124 131q0 -20 1 -39.5t1 -42.5v-86h-113zM254 412q0 -68 24.5 -125.5t67.5 -100.5t101.5 -67.5 t125.5 -24.5q68 0 125.5 24.5t99.5 67.5t64.5 100.5t22.5 123.5q0 68 -22.5 126t-64.5 100t-99.5 66.5t-125.5 24.5t-126 -24.5t-101 -66.5t-67.5 -99.5t-24.5 -124.5z" />
<glyph unicode="c" horiz-adv-x="847" d="M80 410q0 88 33.5 166.5t92 136t137.5 91.5t169 34q78 0 147.5 -25t124.5 -70q-16 -23 -34.5 -42t-36.5 -42q-84 68 -201 68q-68 0 -126 -24.5t-101 -66.5t-67.5 -100.5t-24.5 -125.5q0 -66 24.5 -123.5t67.5 -100.5t101 -67.5t126 -24.5q117 0 201 68l69 -84 q-55 -45 -123.5 -69.5t-146.5 -24.5q-90 0 -169 33.5t-137.5 91t-92 135.5t-33.5 166z" />
<glyph unicode="d" d="M82 410q0 92 32.5 170.5t89 135t133.5 89.5t167 33q63 0 116.5 -16.5t95.5 -43t71.5 -61.5t46.5 -70v922h112v-1569h-112v84q0 23 2 44.5t2 41.5q-41 -76 -127 -131t-209 -55q-94 0 -171 33.5t-132.5 91t-86 135.5t-30.5 166zM195 412q0 -68 24.5 -125.5t67.5 -100.5 t101 -67.5t126 -24.5t126 24.5t101 67.5t68 100.5t25 125.5q0 66 -25 123t-68 100t-101 67.5t-126 24.5t-126 -24.5t-101 -66.5t-67.5 -99t-24.5 -125z" />
<glyph unicode="e" horiz-adv-x="933" d="M80 410q0 88 33.5 166.5t92 137t136.5 92.5t166 34q135 0 234.5 -82t146.5 -209q-70 -27 -155 -60.5t-174 -69.5t-177 -72t-164 -66q37 -84 114 -135.5t175 -51.5q66 0 125 22.5t100 61.5l84 -80q-59 -53 -139 -83.5t-166 -30.5q-90 0 -169 33.5t-137.5 91t-92 135.5 t-33.5 166zM193 414q0 -33 6 -58q63 27 135 55.5t143.5 58.5t141.5 57.5t129 50.5q-35 70 -98.5 109.5t-141.5 39.5q-66 0 -123 -25.5t-100 -68.5t-67.5 -99.5t-24.5 -119.5z" />
<glyph unicode="f" horiz-adv-x="606" d="M57 707v110h142v242q0 250 119.5 376t318.5 134v-109q-152 -4 -239 -109.5t-87 -291.5v-242h269v-110h-269v-707h-112v707h-142z" />
<glyph unicode="g" d="M82 408q0 92 32.5 169.5t90 136t134.5 91.5t163 33q68 0 123 -18.5t97 -46.5t70.5 -60.5t41.5 -63.5q0 41 3 84t5 86h104v-805q0 -88 -26.5 -162.5t-80 -129t-135 -85t-192.5 -30.5q-117 0 -204 43t-177 127l74 78q80 -78 152.5 -109t150.5 -31q86 0 146.5 21.5 t99.5 59.5t57 92.5t20 119.5v28.5t3 47.5q0 6 1 19.5t1 28.5t1 28.5t1 17.5q-39 -78 -124 -136t-210 -58q-90 0 -167 32.5t-134.5 90t-89 134.5t-31.5 167zM195 412q0 -68 24.5 -125.5t67.5 -100.5t101 -67.5t126 -24.5t126 24.5t101 67.5t68 100.5t25 125.5q0 66 -25 123 t-68 100t-101 67.5t-126 24.5t-126 -24.5t-101 -66.5t-67.5 -99t-24.5 -125z" />
<glyph unicode="h" horiz-adv-x="987" d="M139 0v1569h113v-948q41 94 126 154.5t208 62.5q123 0 194.5 -68t75.5 -178v-592h-113v553q-4 70 -49 119t-135 53q-66 0 -121 -21.5t-97 -60.5t-65.5 -92t-23.5 -117v-434h-113z" />
<glyph unicode="i" horiz-adv-x="391" d="M115 1116q0 35 25.5 58.5t56.5 23.5t55 -23.5t24 -58.5q0 -37 -24.5 -59.5t-54.5 -22.5q-31 0 -56.5 22.5t-25.5 59.5zM139 0v819h113v-819h-113z" />
<glyph unicode="j" horiz-adv-x="391" d="M20 -311q55 53 87 127.5t32 177.5v825h113v-825q0 -129 -41 -226.5t-111 -160.5q-23 20 -41 39.5t-39 42.5zM117 1116q0 35 25.5 58.5t56.5 23.5q33 0 57.5 -23.5t24.5 -58.5q0 -37 -25 -59.5t-57 -22.5q-31 0 -56.5 22.5t-25.5 59.5z" />
<glyph unicode="k" horiz-adv-x="845" d="M139 0v1569h113v-1143q115 106 221 205.5t221 208.5l68 -70q-78 -72 -148.5 -140.5t-148.5 -140.5l356 -489h-131l-305 414l-133 -123v-291h-113z" />
<glyph unicode="l" horiz-adv-x="399" d="M143 0v1569h113v-1569h-113z" />
<glyph unicode="m" horiz-adv-x="1576" d="M141 0v819h97q2 -18 3 -48t3 -61.5t3 -59t1 -42.5q45 102 128 165t206 65q115 0 184.5 -60.5t81.5 -159.5q47 98 128 158t202 62q123 0 193.5 -68t74.5 -178v-592h-113v553q-4 70 -49 119t-135 53q-63 0 -117.5 -21.5t-94.5 -59.5t-62.5 -90t-24.5 -114v-440h-113v553 q-4 70 -49 119t-133 53q-66 0 -120 -21.5t-95 -60.5t-63.5 -92t-22.5 -117v-434h-113z" />
<glyph unicode="n" horiz-adv-x="989" d="M141 0v819h97l10 -211q45 102 133 166t211 64q121 0 191.5 -68t74.5 -178v-592h-113v553q-4 70 -49 119t-135 53q-66 0 -121 -21.5t-97 -60.5t-65.5 -92t-23.5 -117v-434h-113z" />
<glyph unicode="o" horiz-adv-x="1019" d="M80 410q0 88 33.5 166.5t92 137t137.5 92.5t169 34t169 -34t136 -92.5t90 -137t33 -166.5t-33 -166t-91 -135.5t-136 -91t-170 -33.5q-90 0 -168 31.5t-136.5 89t-92 135.5t-33.5 170zM193 410q0 -66 24.5 -123.5t67.5 -100.5t100 -67.5t123 -24.5t124 24.5t101 67.5 t67.5 100.5t24.5 123.5t-24.5 124t-67.5 101t-101.5 67.5t-123.5 24.5q-66 0 -123 -24.5t-100 -67.5t-67.5 -101t-24.5 -124z" />
<glyph unicode="p" d="M141 -393v1212h109q0 -6 1 -26.5t1 -46t1 -52t1 -47.5q39 76 125 133.5t205 57.5q92 0 168.5 -32t133 -88t88.5 -135t32 -173q0 -90 -32 -168t-89.5 -135.5t-135 -90t-169.5 -32.5q-115 0 -204 53t-124 131q0 -20 1 -39.5t1 -42.5v-479h-113zM254 412q0 -68 24.5 -125.5 t67.5 -100.5t101.5 -67.5t125.5 -24.5q68 0 125.5 24.5t99.5 67.5t64.5 100.5t22.5 123.5q0 68 -22.5 126t-64.5 100t-99.5 66.5t-125.5 24.5t-126 -24.5t-101 -66.5t-67.5 -99.5t-24.5 -124.5z" />
<glyph unicode="q" d="M82 410q0 92 32.5 170.5t89 135t133.5 89.5t167 33q63 0 116.5 -16.5t95.5 -43t71.5 -61.5t46.5 -70q0 20 1 47t1 52.5t1 46t1 26.5h108v-1212h-112v477q0 23 2 44.5t2 41.5q-41 -76 -127 -131t-209 -55q-94 0 -171 33.5t-132.5 91t-86 135.5t-30.5 166zM195 412 q0 -68 24.5 -125.5t67.5 -100.5t101 -67.5t126 -24.5t126 24.5t101 67.5t68 100.5t25 125.5q0 66 -25 123t-68 100t-101 67.5t-126 24.5t-126 -24.5t-101 -66.5t-67.5 -99t-24.5 -125z" />
<glyph unicode="r" horiz-adv-x="602" d="M141 0v819h97l10 -211q25 53 63.5 95t84.5 72t96.5 46.5t95.5 16.5l-23 -142q-61 0 -117.5 -19.5t-99.5 -54t-68.5 -85t-25.5 -111.5v-426h-113z" />
<glyph unicode="s" horiz-adv-x="679" d="M74 86q8 8 20 22.5t22.5 26.5t17.5 21.5t9 9.5q6 -10 26.5 -22.5t47.5 -23.5t57.5 -19.5t59.5 -8.5q25 0 52.5 7t51 23.5t37.5 41t14 59.5q0 47 -28.5 75t-71.5 48.5t-94 37.5t-94 44t-72 70t-29 110q0 61 22.5 103.5t57.5 70t79 40t85 12.5q53 0 116.5 -23t110.5 -70 l-61 -79q-16 23 -64.5 42t-97.5 19q-20 0 -43.5 -6t-43 -19.5t-33 -35t-13.5 -52.5q0 -47 28.5 -74.5t71.5 -48t93.5 -39t93.5 -45t71.5 -68.5t28.5 -108q0 -102 -69.5 -172.5t-198.5 -70.5q-70 0 -142.5 24.5t-117.5 77.5z" />
<glyph unicode="t" horiz-adv-x="585" d="M39 709v102h164v367h112v-367h244v-102h-244v-709h-112v709h-164z" />
<glyph unicode="u" horiz-adv-x="987" d="M131 227v592h113v-553q4 -70 49 -119t135 -53q63 0 119.5 21.5t97.5 59.5t65.5 91t24.5 117v436h113v-829h-94l-13 221q-43 -102 -131 -165.5t-213 -63.5q-121 0 -191.5 67.5t-74.5 177.5z" />
<glyph unicode="v" horiz-adv-x="874" d="M25 819h120q61 -123 104.5 -216t75 -168t58.5 -139.5t55 -129.5q29 66 54.5 130t57.5 139t75 168t104 216h121q-111 -219 -206 -434t-206 -434q-57 109 -108 217t-100.5 217t-99.5 217.5t-105 216.5z" />
<glyph unicode="w" horiz-adv-x="1323" d="M31 819h112q49 -113 87 -202t69 -164.5t57.5 -144t51.5 -142.5q16 43 34.5 88t41 100.5t51 126t69.5 162.5l-80 176h101q102 -227 168.5 -381.5t115.5 -271.5q25 74 52.5 143.5t60.5 145t73 164t89 200.5h112l-387 -868q-70 147 -128 290.5t-128 290.5l-245 -581 q-96 219 -189.5 434t-187.5 434z" />
<glyph unicode="x" horiz-adv-x="821" d="M45 0q72 106 147.5 212t147.5 212q-70 98 -143.5 197.5t-145.5 197.5h139q57 -86 110.5 -156.5t113.5 -154.5q57 84 110.5 154.5t110.5 154.5h127q-37 -53 -71 -102t-68.5 -96.5t-70.5 -96.5t-73 -104q72 -98 154 -209t151 -209h-141q-61 84 -121.5 161t-120.5 161 q-59 -84 -114.5 -160t-114.5 -162h-127z" />
<glyph unicode="y" horiz-adv-x="917" d="M29 819h121q61 -123 106 -221t81 -179t64.5 -150.5t57.5 -135.5q29 66 56.5 135.5t63 150.5t81 179t106.5 221h121l-559 -1212h-119q27 55 48.5 103t41.5 97.5t44 103.5t54 122q-94 188 -184 392t-184 394z" />
<glyph unicode="z" horiz-adv-x="827" d="M53 0l510 721h-346q-68 0 -107.5 29.5t-39.5 91.5v55h102v-27q0 -29 16.5 -40t51.5 -11h528l-502 -708h494v-111h-707z" />
<glyph unicode="{" horiz-adv-x="628" d="M68 551v125q51 2 82.5 30.5t50 69.5t24.5 89t6 89v342q0 94 17.5 144.5t48.5 73t71 24.5t83 2h110v-117h-100q-63 0 -86 -45t-23 -174v-282q0 -76 -12 -127.5t-31.5 -87t-43 -56t-46.5 -35.5q23 -14 46.5 -35.5t43 -57.5t31.5 -87t12 -125v-282q0 -129 22.5 -174 t86.5 -45h100v-117h-110q-45 0 -85 2t-70 26.5t-47.5 80t-17.5 161.5v309q0 43 -6 90.5t-24.5 89.5t-50 69.5t-82.5 29.5z" />
<glyph unicode="|" horiz-adv-x="503" d="M193 -479v1925h118v-1925h-118z" />
<glyph unicode="}" horiz-adv-x="626" d="M68 -190h100q31 0 51.5 10t32.5 34.5t17 66.5t5 108v311q0 66 14.5 113t35 78.5t44 52t42.5 32.5q-23 14 -46.5 35t-44 56.5t-33 87t-12.5 127.5v282q0 63 -5 106.5t-17 68t-32.5 34.5t-51.5 10h-100v117h108q43 0 83 -2t70.5 -23.5t49 -71.5t18.5 -147v-313 q0 -41 4.5 -92t21.5 -98.5t49 -81t87 -35.5v-125q-55 -2 -87 -35t-49 -80t-21.5 -99t-4.5 -91v-309q0 -96 -18.5 -145.5t-49 -72t-70.5 -24.5t-83 -2h-108v117z" />
<glyph unicode="~" horiz-adv-x="966" d="M170 965q2 41 19.5 71.5t43 52t56 31.5t61.5 10q47 0 84 -18t70 -53t56.5 -46.5t51.5 -11.5q14 0 34 4.5t38 15.5t31.5 31.5t17.5 51.5l68 -4q-2 -41 -19.5 -72t-43 -52.5t-56.5 -31.5t-61 -10q-47 0 -84 19.5t-70 52.5q-33 35 -56.5 46t-52.5 11q-16 0 -34.5 -4 t-37 -15.5t-31.5 -32t-17 -50.5z" />
<glyph unicode="&#xa2;" horiz-adv-x="878" d="M82 410q0 80 27.5 150.5t74.5 126.5t112.5 94t141.5 50v121h86v-114q76 -2 142.5 -27t119.5 -68q-16 -23 -34.5 -42t-36.5 -42q-80 63 -191 68v-633q111 2 191 68l69 -84q-53 -43 -119.5 -67.5t-140.5 -26.5v-123h-86v129q-76 12 -141.5 50t-112.5 93t-74.5 126 t-27.5 151zM195 410q0 -115 67.5 -199t175.5 -109v617q-109 -25 -176 -108.5t-67 -200.5z" />
<glyph unicode="&#xa3;" horiz-adv-x="1210" d="M86 0v117h90q35 0 56.5 10t32.5 36.5t15.5 75t4.5 121.5v232h-135v117h135v364q0 145 107.5 227t281.5 82q143 0 226 -53t130 -145l-90 -51q-16 25 -35.5 49t-48.5 42.5t-72 30t-106 11.5q-145 0 -208.5 -60.5t-63.5 -158.5v-338h249v-117h-249v-295q0 -59 -7.5 -105 t-38.5 -75h412q63 0 106.5 5t68 17.5t34.5 33t10 52.5v101h121v-150q0 -37 -7 -68.5t-31.5 -55t-73 -38t-132.5 -14.5h-782z" />
<glyph unicode="&#xa5;" horiz-adv-x="1355" d="M63 1462h158q37 -61 90.5 -155.5t113.5 -200t120.5 -214t109.5 -198.5l25 -61l25 61q51 90 110 198.5t117.5 214t111 200t89.5 155.5h159l-479 -839h207v-84h-254l-16 -29v-221h270v-84h-270v-205h-142v205h-270v84h270v221l-18 29h-252v84h203q-35 61 -78 136t-89 155.5 t-91 162.5t-87 155t-76 133t-57 97z" />
<glyph unicode="&#xa8;" horiz-adv-x="763" d="M127 1059q0 35 24.5 59.5t57.5 24.5q31 0 56.5 -24.5t25.5 -59.5q0 -37 -25.5 -60.5t-56.5 -23.5q-33 0 -57.5 23.5t-24.5 60.5zM494 1059q0 35 24.5 59.5t56.5 24.5q31 0 56.5 -24.5t25.5 -59.5q0 -37 -25.5 -60.5t-56.5 -23.5q-33 0 -57 23.5t-24 60.5z" />
<glyph unicode="&#xa9;" horiz-adv-x="1323" d="M133 762q0 115 41 211t112.5 166.5t168 110.5t207.5 40t207 -40t167.5 -110.5t112.5 -166.5t41 -211q0 -113 -41 -209t-112.5 -167t-167.5 -110.5t-207 -39.5t-207.5 39.5t-168 110.5t-112.5 167t-41 209zM182 760q0 -102 38 -189.5t102.5 -152t151.5 -100t185 -35.5 q100 0 188.5 35.5t153 100t102.5 151.5t38 190q0 104 -38 192t-102.5 152.5t-152.5 101.5t-189 37q-98 0 -185 -37t-151.5 -101.5t-102.5 -152.5t-38 -192zM338 762q0 74 26.5 136.5t73.5 108.5t108.5 72.5t133.5 26.5q51 0 98 -13.5t76 -33.5q-10 -14 -13 -21.5t-16 -27.5 q-29 18 -68.5 27.5t-74.5 9.5q-59 0 -110.5 -23t-88.5 -60.5t-58.5 -89t-21.5 -106.5t19.5 -104.5t55.5 -87t85 -60t111 -22.5q53 0 98 15t64 30l28 -58q-29 -18 -78 -35.5t-114 -17.5q-76 0 -137.5 26.5t-105.5 72.5t-67.5 106.5t-23.5 128.5z" />
<glyph unicode="&#xab;" horiz-adv-x="927" d="M90 494q27 25 75 76t101 106t101.5 106.5t74.5 75.5v-137q-23 -23 -49 -52.5t-54 -61.5t-55.5 -61.5t-50.5 -51.5q23 -23 50.5 -52.5t55.5 -62.5t54.5 -63.5t48.5 -53.5v-135zM442 494q27 25 75 76t101.5 106t102.5 106.5t76 75.5v-135q-23 -23 -50.5 -52.5t-55 -62.5 t-55.5 -62.5t-48 -51.5q20 -23 48 -52.5t55.5 -62.5t55 -63.5t50.5 -53.5v-135z" />
<glyph unicode="&#xad;" horiz-adv-x="643" d="M131 365v116h381v-116h-381z" />
<glyph unicode="&#xae;" horiz-adv-x="1323" d="M133 762q0 115 41 211t112.5 166.5t168 110.5t207.5 40t207 -40t167.5 -110.5t112.5 -166.5t41 -211q0 -113 -41 -209t-112.5 -167t-167.5 -110.5t-207 -39.5t-207.5 39.5t-168 110.5t-112.5 167t-41 209zM182 760q0 -102 38 -189.5t102.5 -152t151.5 -100t185 -35.5 q100 0 188.5 35.5t153 100t102.5 151.5t38 190q0 104 -38 192t-102.5 152.5t-152.5 101.5t-189 37q-98 0 -185 -37t-151.5 -101.5t-102.5 -152.5t-38 -192zM483 430v692h168q43 0 84 -12t72 -37.5t50.5 -63.5t19.5 -89q0 -59 -27 -111.5t-86 -81.5q12 -23 37.5 -63.5 t53.5 -86t53.5 -86t37.5 -61.5h-80q-10 16 -32.5 53t-47 78l-49 82t-41.5 66q-10 -2 -21 -2h-22h-104v-277h-66zM549 770h102q47 0 78 15.5t49.5 38t25.5 48t7 48.5q0 53 -40 96t-118 43h-104v-289z" />
<glyph unicode="&#xb4;" horiz-adv-x="524" d="M207 989l186 275h121q-53 -70 -108.5 -138.5t-110.5 -136.5h-88z" />
<glyph unicode="&#xb8;" horiz-adv-x="933" d="M233 -354q39 20 72 35q10 -37 41 -60.5t76 -23.5q53 0 86 36.5t33 90.5q0 47 -23.5 73.5t-53.5 46t-53.5 41t-23.5 58.5v57h78v-14q0 -29 8 -46.5t20.5 -28.5t28 -19.5t27.5 -16.5q45 -33 63.5 -74t18.5 -84q0 -94 -54.5 -153.5t-146.5 -59.5q-63 0 -117.5 35t-79.5 107z " />
<glyph unicode="&#xbb;" horiz-adv-x="927" d="M131 127v135q23 23 50.5 53.5t55 63.5t54 62.5t49.5 52.5q-23 23 -49.5 52t-54 62t-55 62.5t-50.5 52.5v135q27 -25 76 -76t102 -106t101.5 -106.5t74.5 -75.5zM485 127v135q20 23 48 53.5t55.5 63.5t55.5 62.5t50 52.5q-23 23 -50.5 52t-55 61t-55 61.5t-48.5 52.5v137 q27 -25 75 -76t101.5 -106t101.5 -106.5t75 -75.5z" />
<glyph unicode="&#x2c6;" horiz-adv-x="921" d="M231 989l248 373q61 -92 123 -186.5t125 -186.5h-90q-16 25 -36.5 53.5t-42 59.5t-42 60.5t-37.5 51.5q-16 -23 -36.5 -52t-43 -60t-43 -59.5t-37.5 -53.5h-88z" />
<glyph unicode="&#x2da;" horiz-adv-x="978" d="M373 1049q0 63 45 108t110 45q66 0 111 -45t45 -108q0 -66 -45 -111t-111 -45t-110.5 45t-44.5 111zM444 1047q0 -35 25 -59.5t59 -24.5q35 0 59.5 24.5t24.5 59.5t-24.5 59t-59.5 24t-59.5 -24t-24.5 -59z" />
<glyph unicode="&#x2dc;" horiz-adv-x="1220" d="M338 981q2 41 19.5 71.5t43 52t56 32t61.5 10.5q47 0 84 -18.5t70 -53.5t56.5 -46t51.5 -11q14 0 34 4t38 15.5t31.5 32t17.5 50.5l68 -4q-2 -41 -19.5 -71.5t-43 -52t-56.5 -32t-62 -10.5q-47 0 -83.5 19.5t-69.5 52.5q-33 35 -56.5 46t-52.5 11q-16 0 -34.5 -4t-37 -15 t-31.5 -31.5t-17 -51.5z" />
<glyph unicode="&#x2000;" horiz-adv-x="798" />
<glyph unicode="&#x2001;" horiz-adv-x="1597" />
<glyph unicode="&#x2002;" horiz-adv-x="798" />
<glyph unicode="&#x2003;" horiz-adv-x="1597" />
<glyph unicode="&#x2004;" horiz-adv-x="532" />
<glyph unicode="&#x2005;" horiz-adv-x="399" />
<glyph unicode="&#x2006;" horiz-adv-x="266" />
<glyph unicode="&#x2007;" horiz-adv-x="266" />
<glyph unicode="&#x2008;" horiz-adv-x="199" />
<glyph unicode="&#x2009;" horiz-adv-x="319" />
<glyph unicode="&#x200a;" horiz-adv-x="88" />
<glyph unicode="&#x2010;" horiz-adv-x="643" d="M131 365v116h381v-116h-381z" />
<glyph unicode="&#x2011;" horiz-adv-x="643" d="M131 365v116h381v-116h-381z" />
<glyph unicode="&#x2012;" horiz-adv-x="643" d="M131 365v116h381v-116h-381z" />
<glyph unicode="&#x2013;" horiz-adv-x="892" d="M135 354v117h621v-117h-621z" />
<glyph unicode="&#x2014;" horiz-adv-x="1308" d="M135 354v117h1036v-117h-1036z" />
<glyph unicode="&#x2018;" horiz-adv-x="378" d="M119 1468l84 -14q-14 -72 5 -133t62 -102l-57 -45q-59 55 -85 131.5t-9 162.5z" />
<glyph unicode="&#x2019;" horiz-adv-x="378" d="M109 1219q45 41 64.5 102t4.5 133l82 14q16 -86 -8.5 -162.5t-83.5 -131.5z" />
<glyph unicode="&#x201a;" horiz-adv-x="399" d="M92 -59q43 41 62.5 102t5.5 133l82 14q16 -86 -8.5 -162.5t-83.5 -131.5q-31 23 -58 45z" />
<glyph unicode="&#x201c;" horiz-adv-x="591" d="M119 1468l82 -14q-14 -72 6 -133t63 -102l-59 -45q-59 55 -84 131.5t-8 162.5zM334 1468l82 -14q-14 -72 5 -133t62 -102q-27 -23 -57 -45q-59 55 -84 131.5t-8 162.5z" />
<glyph unicode="&#x201d;" horiz-adv-x="593" d="M109 1219q45 41 64.5 102t4.5 133l82 14q16 -86 -8.5 -162.5t-83.5 -131.5zM324 1219q43 41 62.5 102t4.5 133l84 14q16 -86 -9.5 -162.5t-84.5 -131.5z" />
<glyph unicode="&#x201e;" horiz-adv-x="614" d="M92 -59q43 41 62.5 102t5.5 133l82 14q16 -86 -8.5 -162.5t-83.5 -131.5q-31 23 -58 45zM305 -59q45 41 64.5 102t5.5 133l82 14q16 -86 -8.5 -162.5t-83.5 -131.5z" />
<glyph unicode="&#x2026;" horiz-adv-x="1103" d="M131 84q0 35 24.5 59.5t57.5 24.5q31 0 56.5 -24.5t25.5 -59.5q0 -37 -25.5 -60.5t-56.5 -23.5q-33 0 -57.5 23.5t-24.5 60.5zM467 84q0 35 25.5 59.5t58.5 24.5q31 0 56.5 -24.5t25.5 -59.5q0 -37 -25.5 -60.5t-56.5 -23.5q-33 0 -58.5 23.5t-25.5 60.5zM805 84 q0 35 25.5 59.5t58.5 24.5q29 0 55.5 -24.5t26.5 -59.5q0 -37 -26.5 -60.5t-55.5 -23.5q-33 0 -58.5 23.5t-25.5 60.5z" />
<glyph unicode="&#x202f;" horiz-adv-x="319" />
<glyph unicode="&#x2039;" horiz-adv-x="573" d="M90 494q27 25 75 76t101 106t101.5 106.5t74.5 75.5v-137q-23 -23 -49 -52.5t-54 -61.5t-55.5 -61.5t-50.5 -51.5q23 -23 50.5 -52.5t55.5 -62.5t54.5 -63.5t48.5 -53.5v-135z" />
<glyph unicode="&#x203a;" horiz-adv-x="573" d="M131 127v135q20 23 48 53.5t55.5 63.5t55 62.5t50.5 52.5q-23 23 -50.5 52t-55 61t-55 61.5t-48.5 52.5v137q27 -25 75 -76t101 -106t101.5 -106.5t74.5 -75.5z" />
<glyph unicode="&#x205f;" horiz-adv-x="399" />
<glyph unicode="&#x20ac;" horiz-adv-x="1114" d="M84 752v67h141q18 113 62.5 211t114 171t162.5 115t210 42q78 0 137.5 -19.5t89.5 -35.5l-53 -105q-41 23 -83 33t-95 10q-90 0 -162.5 -29.5t-127 -86t-88.5 -134.5t-48 -172h461v-67h-467q-2 -14 -2 -27.5v-28.5q0 -27 1 -50t3 -46h465v-68h-455q18 -109 61.5 -189.5 t100.5 -133.5t122.5 -81t131.5 -28q47 0 94 14.5t90 39.5l64 -105q-115 -66 -250 -65q-100 0 -190.5 38.5t-162 110.5t-120.5 172.5t-68 226.5h-137v68h131q-2 18 -2 36.5v39.5v36.5t2 39.5h-133z" />
<glyph unicode="&#x2122;" horiz-adv-x="1200" d="M88 1501v49h330v-49h-142v-481h-47v481h-141zM516 1020v553q20 -31 56 -82t74 -104.5t73 -102.5t53 -76l258 365v-553h-53v381q0 6 1 13t1 11q-18 -27 -47 -67.5t-58.5 -84.5t-57.5 -83t-44 -64q-14 20 -46 64.5t-64.5 92.5t-60.5 89t-36 53q0 -4 1 -11t1 -13v-381h-51z " />
<glyph unicode="&#x25fc;" horiz-adv-x="819" d="M0 0v819h819v-819h-819z" />
<hkern u1="&#x20;" u2="w" k="45" />
<hkern u1="&#x20;" u2="v" k="47" />
<hkern u1="&#x20;" u2="W" k="76" />
<hkern u1="&#x20;" u2="V" k="80" />
<hkern u1="&#x23;" u2="&#x37;" k="23" />
<hkern u1="&#x26;" u2="W" k="57" />
<hkern u1="&#x26;" u2="V" k="63" />
<hkern u1="&#x28;" u2="x" k="45" />
<hkern u1="&#x28;" u2="w" k="88" />
<hkern u1="&#x28;" u2="v" k="88" />
<hkern u1="&#x28;" u2="&#x39;" k="51" />
<hkern u1="&#x28;" u2="&#x38;" k="57" />
<hkern u1="&#x28;" u2="&#x36;" k="72" />
<hkern u1="&#x28;" u2="&#x34;" k="66" />
<hkern u1="&#x28;" u2="&#x30;" k="63" />
<hkern u1="&#x28;" u2="&#x28;" k="31" />
<hkern u1="&#x29;" u2="&#x7d;" k="23" />
<hkern u1="&#x29;" u2="]" k="29" />
<hkern u1="&#x29;" u2="&#x29;" k="31" />
<hkern u1="&#x2b;" u2="&#x39;" k="25" />
<hkern u1="&#x2b;" u2="&#x37;" k="90" />
<hkern u1="&#x2b;" u2="&#x33;" k="27" />
<hkern u1="&#x2b;" u2="&#x32;" k="31" />
<hkern u1="&#x2b;" u2="&#x31;" k="41" />
<hkern u1="&#x2f;" u2="x" k="59" />
<hkern u1="&#x2f;" u2="w" k="61" />
<hkern u1="&#x2f;" u2="v" k="59" />
<hkern u1="&#x2f;" u2="&#x38;" k="29" />
<hkern u1="&#x2f;" u2="&#x36;" k="72" />
<hkern u1="&#x2f;" u2="&#x34;" k="76" />
<hkern u1="&#x2f;" u2="&#x30;" k="23" />
<hkern u1="&#x2f;" u2="&#x2f;" k="78" />
<hkern u1="&#x30;" u2="&#x7d;" k="53" />
<hkern u1="&#x30;" u2="]" k="61" />
<hkern u1="&#x30;" u2="\" k="23" />
<hkern u1="&#x30;" u2="X" k="27" />
<hkern u1="&#x30;" u2="W" k="53" />
<hkern u1="&#x30;" u2="V" k="57" />
<hkern u1="&#x30;" u2="&#x37;" k="25" />
<hkern u1="&#x30;" u2="&#x29;" k="63" />
<hkern u1="&#x31;" u2="&#x7d;" k="20" />
<hkern u1="&#x31;" u2="]" k="27" />
<hkern u1="&#x31;" u2="W" k="31" />
<hkern u1="&#x31;" u2="V" k="33" />
<hkern u1="&#x31;" u2="&#x29;" k="23" />
<hkern u1="&#x32;" u2="]" k="31" />
<hkern u1="&#x32;" u2="W" k="47" />
<hkern u1="&#x32;" u2="V" k="51" />
<hkern u1="&#x33;" u2="W" k="25" />
<hkern u1="&#x33;" u2="V" k="27" />
<hkern u1="&#x34;" u2="&#x7d;" k="37" />
<hkern u1="&#x34;" u2="]" k="49" />
<hkern u1="&#x34;" u2="\" k="25" />
<hkern u1="&#x34;" u2="W" k="57" />
<hkern u1="&#x34;" u2="V" k="61" />
<hkern u1="&#x34;" u2="&#x29;" k="51" />
<hkern u1="&#x35;" u2="]" k="23" />
<hkern u1="&#x35;" u2="W" k="27" />
<hkern u1="&#x35;" u2="V" k="31" />
<hkern u1="&#x36;" u2="&#x7d;" k="43" />
<hkern u1="&#x36;" u2="]" k="55" />
<hkern u1="&#x36;" u2="\" k="25" />
<hkern u1="&#x36;" u2="W" k="55" />
<hkern u1="&#x36;" u2="V" k="59" />
<hkern u1="&#x36;" u2="&#x37;" k="23" />
<hkern u1="&#x36;" u2="&#x29;" k="53" />
<hkern u1="&#x37;" u2="&#xa2;" k="82" />
<hkern u1="&#x37;" u2="&#x38;" k="20" />
<hkern u1="&#x37;" u2="&#x36;" k="63" />
<hkern u1="&#x37;" u2="&#x34;" k="72" />
<hkern u1="&#x37;" u2="&#x2f;" k="72" />
<hkern u1="&#x37;" u2="&#x2b;" k="90" />
<hkern u1="&#x37;" u2="&#x23;" k="23" />
<hkern u1="&#x38;" u2="&#x7d;" k="47" />
<hkern u1="&#x38;" u2="]" k="59" />
<hkern u1="&#x38;" u2="\" k="31" />
<hkern u1="&#x38;" u2="W" k="63" />
<hkern u1="&#x38;" u2="V" k="68" />
<hkern u1="&#x38;" u2="&#x29;" k="59" />
<hkern u1="&#x39;" u2="&#x7d;" k="57" />
<hkern u1="&#x39;" u2="]" k="68" />
<hkern u1="&#x39;" u2="X" k="47" />
<hkern u1="&#x39;" u2="W" k="39" />
<hkern u1="&#x39;" u2="V" k="41" />
<hkern u1="&#x39;" u2="&#x33;" k="25" />
<hkern u1="&#x39;" u2="&#x2f;" k="35" />
<hkern u1="&#x39;" u2="&#x2b;" k="23" />
<hkern u1="&#x39;" u2="&#x29;" k="66" />
<hkern u1="&#x40;" u2="W" k="88" />
<hkern u1="&#x40;" u2="V" k="96" />
<hkern u1="B" u2="&#x7d;" k="31" />
<hkern u1="B" u2="x" k="74" />
<hkern u1="B" u2="w" k="63" />
<hkern u1="B" u2="v" k="70" />
<hkern u1="B" u2="]" k="43" />
<hkern u1="B" u2="W" k="29" />
<hkern u1="B" u2="V" k="33" />
<hkern u1="B" u2="&#x29;" k="39" />
<hkern u1="F" u2="x" k="90" />
<hkern u1="F" u2="w" k="63" />
<hkern u1="F" u2="v" k="61" />
<hkern u1="F" u2="&#x40;" k="27" />
<hkern u1="F" u2="&#x36;" k="23" />
<hkern u1="F" u2="&#x34;" k="59" />
<hkern u1="F" u2="&#x2f;" k="63" />
<hkern u1="F" u2="&#x20;" k="47" />
<hkern u1="P" u2="x" k="29" />
<hkern u1="P" u2="w" k="14" />
<hkern u1="P" u2="v" k="12" />
<hkern u1="P" u2="&#x36;" k="23" />
<hkern u1="P" u2="&#x34;" k="68" />
<hkern u1="P" u2="&#x2f;" k="63" />
<hkern u1="P" u2="&#x26;" k="23" />
<hkern u1="P" u2="&#x20;" k="59" />
<hkern u1="V" u2="&#x2122;" k="-33" />
<hkern u1="V" u2="&#xae;" k="53" />
<hkern u1="V" u2="&#xa9;" k="53" />
<hkern u1="V" u2="x" k="166" />
<hkern u1="V" u2="w" k="156" />
<hkern u1="V" u2="v" k="152" />
<hkern u1="V" u2="&#x40;" k="100" />
<hkern u1="V" u2="&#x39;" k="39" />
<hkern u1="V" u2="&#x38;" k="55" />
<hkern u1="V" u2="&#x36;" k="102" />
<hkern u1="V" u2="&#x34;" k="113" />
<hkern u1="V" u2="&#x32;" k="33" />
<hkern u1="V" u2="&#x30;" k="49" />
<hkern u1="V" u2="&#x2f;" k="109" />
<hkern u1="V" u2="&#x26;" k="49" />
<hkern u1="V" u2="&#x20;" k="80" />
<hkern u1="W" u2="&#x2122;" k="-35" />
<hkern u1="W" u2="&#xae;" k="49" />
<hkern u1="W" u2="&#xa9;" k="49" />
<hkern u1="W" u2="x" k="158" />
<hkern u1="W" u2="w" k="147" />
<hkern u1="W" u2="v" k="143" />
<hkern u1="W" u2="&#x40;" k="94" />
<hkern u1="W" u2="&#x39;" k="37" />
<hkern u1="W" u2="&#x38;" k="51" />
<hkern u1="W" u2="&#x36;" k="98" />
<hkern u1="W" u2="&#x34;" k="104" />
<hkern u1="W" u2="&#x32;" k="31" />
<hkern u1="W" u2="&#x30;" k="45" />
<hkern u1="W" u2="&#x2f;" k="102" />
<hkern u1="W" u2="&#x26;" k="45" />
<hkern u1="W" u2="&#x20;" k="76" />
<hkern u1="X" u2="&#xae;" k="59" />
<hkern u1="X" u2="&#xa9;" k="59" />
<hkern u1="X" u2="w" k="117" />
<hkern u1="X" u2="v" k="121" />
<hkern u1="X" u2="&#x30;" k="20" />
<hkern u1="[" u2="x" k="68" />
<hkern u1="[" u2="w" k="78" />
<hkern u1="[" u2="v" k="80" />
<hkern u1="[" u2="&#x39;" k="57" />
<hkern u1="[" u2="&#x38;" k="57" />
<hkern u1="[" u2="&#x36;" k="72" />
<hkern u1="[" u2="&#x34;" k="61" />
<hkern u1="[" u2="&#x32;" k="31" />
<hkern u1="[" u2="&#x30;" k="61" />
<hkern u1="[" u2="&#x28;" k="31" />
<hkern u1="\" u2="w" k="20" />
<hkern u1="\" u2="v" k="25" />
<hkern u1="\" u2="W" k="102" />
<hkern u1="\" u2="V" k="109" />
<hkern u1="f" u2="&#x2122;" k="-72" />
<hkern u1="f" u2="&#x7d;" k="-51" />
<hkern u1="f" u2="]" k="-53" />
<hkern u1="f" u2="\" k="-45" />
<hkern u1="f" u2="W" k="-18" />
<hkern u1="f" u2="V" k="-29" />
<hkern u1="f" u2="&#x2f;" k="20" />
<hkern u1="f" u2="&#x29;" k="-74" />
<hkern u1="f" u2="&#x20;" k="39" />
<hkern u1="v" u2="&#x2122;" k="18" />
<hkern u1="v" u2="&#x7d;" k="66" />
<hkern u1="v" u2="]" k="78" />
<hkern u1="v" u2="\" k="59" />
<hkern u1="v" u2="X" k="121" />
<hkern u1="v" u2="W" k="141" />
<hkern u1="v" u2="V" k="154" />
<hkern u1="v" u2="&#x3f;" k="27" />
<hkern u1="v" u2="&#x2f;" k="25" />
<hkern u1="v" u2="&#x29;" k="90" />
<hkern u1="v" u2="&#x20;" k="47" />
<hkern u1="w" u2="&#x2122;" k="18" />
<hkern u1="w" u2="&#x7d;" k="63" />
<hkern u1="w" u2="]" k="78" />
<hkern u1="w" u2="\" k="59" />
<hkern u1="w" u2="X" k="117" />
<hkern u1="w" u2="W" k="141" />
<hkern u1="w" u2="V" k="152" />
<hkern u1="w" u2="&#x3f;" k="25" />
<hkern u1="w" u2="&#x2f;" k="20" />
<hkern u1="w" u2="&#x29;" k="88" />
<hkern u1="w" u2="&#x20;" k="47" />
<hkern u1="x" u2="&#x2122;" k="25" />
<hkern u1="x" u2="&#x7d;" k="51" />
<hkern u1="x" u2="]" k="70" />
<hkern u1="x" u2="\" k="68" />
<hkern u1="x" u2="W" k="176" />
<hkern u1="x" u2="V" k="186" />
<hkern u1="x" u2="&#x3f;" k="39" />
<hkern u1="x" u2="&#x2a;" k="16" />
<hkern u1="x" u2="&#x29;" k="45" />
<hkern u1="&#x7b;" u2="x" k="51" />
<hkern u1="&#x7b;" u2="w" k="66" />
<hkern u1="&#x7b;" u2="v" k="68" />
<hkern u1="&#x7b;" u2="&#x39;" k="47" />
<hkern u1="&#x7b;" u2="&#x38;" k="47" />
<hkern u1="&#x7b;" u2="&#x36;" k="59" />
<hkern u1="&#x7b;" u2="&#x34;" k="43" />
<hkern u1="&#x7b;" u2="&#x30;" k="53" />
<hkern u1="&#x7b;" u2="&#x28;" k="25" />
<hkern u1="&#x7c;" u2="W" k="25" />
<hkern u1="&#x7c;" u2="V" k="27" />
<hkern u1="&#x20ac;" u2="&#x34;" k="23" />
<hkern g1="space" 	g2="t" 	k="20" />
<hkern g1="space" 	g2="y" 	k="47" />
<hkern g1="space" 	g2="A" 	k="59" />
<hkern g1="space" 	g2="J" 	k="96" />
<hkern g1="space" 	g2="Y" 	k="86" />
<hkern g1="space" 	g2="T" 	k="59" />
<hkern g1="space" 	g2="quoteright,quotedblright" 	k="70" />
<hkern g1="space" 	g2="quotedbl,quotesingle" 	k="29" />
<hkern g1="comma,period,quotesinglbase,quotedblbase" 	g2="t" 	k="16" />
<hkern g1="comma,period,quotesinglbase,quotedblbase" 	g2="y" 	k="74" />
<hkern g1="comma,period,quotesinglbase,quotedblbase" 	g2="J" 	k="43" />
<hkern g1="comma,period,quotesinglbase,quotedblbase" 	g2="Y" 	k="184" />
<hkern g1="comma,period,quotesinglbase,quotedblbase" 	g2="T" 	k="127" />
<hkern g1="comma,period,quotesinglbase,quotedblbase" 	g2="quoteright,quotedblright" 	k="188" />
<hkern g1="comma,period,quotesinglbase,quotedblbase" 	g2="quotedbl,quotesingle" 	k="207" />
<hkern g1="comma,period,quotesinglbase,quotedblbase" 	g2="f" 	k="16" />
<hkern g1="comma,period,quotesinglbase,quotedblbase" 	g2="v" 	k="76" />
<hkern g1="comma,period,quotesinglbase,quotedblbase" 	g2="w" 	k="70" />
<hkern g1="comma,period,quotesinglbase,quotedblbase" 	g2="B,D,E,F,H,I,K,L,M,N,P,R" 	k="18" />
<hkern g1="comma,period,quotesinglbase,quotedblbase" 	g2="U" 	k="47" />
<hkern g1="comma,period,quotesinglbase,quotedblbase" 	g2="one" 	k="41" />
<hkern g1="comma,period,quotesinglbase,quotedblbase" 	g2="seven" 	k="39" />
<hkern g1="comma,period,quotesinglbase,quotedblbase" 	g2="nine" 	k="37" />
<hkern g1="comma,period,quotesinglbase,quotedblbase" 	g2="zero" 	k="43" />
<hkern g1="comma,period,quotesinglbase,quotedblbase" 	g2="V" 	k="170" />
<hkern g1="comma,period,quotesinglbase,quotedblbase" 	g2="W" 	k="160" />
<hkern g1="comma,period,quotesinglbase,quotedblbase" 	g2="quoteleft,quotedblleft" 	k="188" />
<hkern g1="comma,period,quotesinglbase,quotedblbase" 	g2="C,G,O,Q" 	k="70" />
<hkern g1="guillemotleft,guilsinglleft" 	g2="J" 	k="43" />
<hkern g1="guillemotleft,guilsinglleft" 	g2="Y" 	k="141" />
<hkern g1="guillemotleft,guilsinglleft" 	g2="T" 	k="137" />
<hkern g1="guillemotleft,guilsinglleft" 	g2="quoteright,quotedblright" 	k="156" />
<hkern g1="guillemotleft,guilsinglleft" 	g2="V" 	k="96" />
<hkern g1="guillemotleft,guilsinglleft" 	g2="W" 	k="88" />
<hkern g1="at" 	g2="A" 	k="29" />
<hkern g1="at" 	g2="J" 	k="43" />
<hkern g1="at" 	g2="Y" 	k="137" />
<hkern g1="at" 	g2="T" 	k="125" />
<hkern g1="at" 	g2="quoteright,quotedblright" 	k="70" />
<hkern g1="at" 	g2="quotedbl,quotesingle" 	k="31" />
<hkern g1="colon,semicolon" 	g2="Y" 	k="133" />
<hkern g1="colon,semicolon" 	g2="T" 	k="100" />
<hkern g1="colon,semicolon" 	g2="quoteright,quotedblright" 	k="188" />
<hkern g1="colon,semicolon" 	g2="quotedbl,quotesingle" 	k="82" />
<hkern g1="colon,semicolon" 	g2="V" 	k="92" />
<hkern g1="colon,semicolon" 	g2="W" 	k="84" />
<hkern g1="quoteright,quotedblright" 	g2="t" 	k="18" />
<hkern g1="quoteright,quotedblright" 	g2="A" 	k="145" />
<hkern g1="quoteright,quotedblright" 	g2="J" 	k="31" />
<hkern g1="quoteright,quotedblright" 	g2="f" 	k="16" />
<hkern g1="quoteright,quotedblright" 	g2="C,G,O,Q" 	k="27" />
<hkern g1="quoteright,quotedblright" 	g2="space" 	k="70" />
<hkern g1="quoteright,quotedblright" 	g2="comma,period,quotesinglbase,quotedblbase,ellipsis" 	k="188" />
<hkern g1="quoteright,quotedblright" 	g2="z" 	k="25" />
<hkern g1="quoteright,quotedblright" 	g2="a,c,d,e,g,o,q" 	k="27" />
<hkern g1="quoteright,quotedblright" 	g2="guillemotleft,guilsinglleft" 	k="188" />
<hkern g1="quoteright,quotedblright" 	g2="at" 	k="117" />
<hkern g1="quoteright,quotedblright" 	g2="colon,semicolon" 	k="188" />
<hkern g1="quoteright,quotedblright" 	g2="hyphen,endash,emdash" 	k="188" />
<hkern g1="quoteright,quotedblright" 	g2="slash" 	k="94" />
<hkern g1="quoteright,quotedblright" 	g2="guillemotright,guilsinglright" 	k="164" />
<hkern g1="quoteright,quotedblright" 	g2="ampersand" 	k="27" />
<hkern g1="asterisk" 	g2="A" 	k="115" />
<hkern g1="asterisk" 	g2="J" 	k="31" />
<hkern g1="asterisk" 	g2="a,c,d,e,g,o,q" 	k="57" />
<hkern g1="asterisk" 	g2="u" 	k="18" />
<hkern g1="asterisk" 	g2="s" 	k="41" />
<hkern g1="asterisk" 	g2="m,n,p,r" 	k="23" />
<hkern g1="bar" 	g2="Y" 	k="37" />
<hkern g1="hyphen,endash,emdash" 	g2="J" 	k="27" />
<hkern g1="hyphen,endash,emdash" 	g2="Y" 	k="162" />
<hkern g1="hyphen,endash,emdash" 	g2="T" 	k="100" />
<hkern g1="hyphen,endash,emdash" 	g2="quoteright,quotedblright" 	k="188" />
<hkern g1="hyphen,endash,emdash" 	g2="quotedbl,quotesingle" 	k="184" />
<hkern g1="hyphen,endash,emdash" 	g2="v" 	k="16" />
<hkern g1="hyphen,endash,emdash" 	g2="seven" 	k="47" />
<hkern g1="hyphen,endash,emdash" 	g2="V" 	k="104" />
<hkern g1="hyphen,endash,emdash" 	g2="W" 	k="96" />
<hkern g1="hyphen,endash,emdash" 	g2="z" 	k="33" />
<hkern g1="slash" 	g2="t" 	k="29" />
<hkern g1="slash" 	g2="y" 	k="61" />
<hkern g1="slash" 	g2="A" 	k="111" />
<hkern g1="slash" 	g2="J" 	k="37" />
<hkern g1="slash" 	g2="f" 	k="20" />
<hkern g1="slash" 	g2="C,G,O,Q" 	k="20" />
<hkern g1="slash" 	g2="z" 	k="49" />
<hkern g1="slash" 	g2="a,c,d,e,g,o,q" 	k="106" />
<hkern g1="slash" 	g2="u" 	k="74" />
<hkern g1="slash" 	g2="s" 	k="90" />
<hkern g1="slash" 	g2="m,n,p,r" 	k="80" />
<hkern g1="backslash" 	g2="y" 	k="23" />
<hkern g1="backslash" 	g2="Y" 	k="133" />
<hkern g1="backslash" 	g2="T" 	k="96" />
<hkern g1="backslash" 	g2="quoteright,quotedblright" 	k="86" />
<hkern g1="backslash" 	g2="quotedbl,quotesingle" 	k="70" />
<hkern g1="quotedbl,quotesingle" 	g2="A" 	k="119" />
<hkern g1="quotedbl,quotesingle" 	g2="J" 	k="31" />
<hkern g1="quotedbl,quotesingle" 	g2="space" 	k="29" />
<hkern g1="quotedbl,quotesingle" 	g2="comma,period,quotesinglbase,quotedblbase,ellipsis" 	k="207" />
<hkern g1="quotedbl,quotesingle" 	g2="a,c,d,e,g,o,q" 	k="43" />
<hkern g1="quotedbl,quotesingle" 	g2="guillemotleft,guilsinglleft" 	k="113" />
<hkern g1="quotedbl,quotesingle" 	g2="at" 	k="53" />
<hkern g1="quotedbl,quotesingle" 	g2="colon,semicolon" 	k="84" />
<hkern g1="quotedbl,quotesingle" 	g2="hyphen,endash,emdash" 	k="186" />
<hkern g1="quotedbl,quotesingle" 	g2="slash" 	k="72" />
<hkern g1="quotedbl,quotesingle" 	g2="ampersand" 	k="29" />
<hkern g1="quotedbl,quotesingle" 	g2="s" 	k="25" />
<hkern g1="quotedbl,quotesingle" 	g2="four" 	k="102" />
<hkern g1="quotedbl,quotesingle" 	g2="six" 	k="51" />
<hkern g1="quoteleft,quotedblleft" 	g2="A" 	k="137" />
<hkern g1="quoteleft,quotedblleft" 	g2="J" 	k="29" />
<hkern g1="quoteleft,quotedblleft" 	g2="comma,period,quotesinglbase,quotedblbase,ellipsis" 	k="188" />
<hkern g1="quoteleft,quotedblleft" 	g2="z" 	k="16" />
<hkern g1="quoteleft,quotedblleft" 	g2="a,c,d,e,g,o,q" 	k="18" />
<hkern g1="guillemotright,guilsinglright" 	g2="y" 	k="20" />
<hkern g1="guillemotright,guilsinglright" 	g2="A" 	k="25" />
<hkern g1="guillemotright,guilsinglright" 	g2="J" 	k="74" />
<hkern g1="guillemotright,guilsinglright" 	g2="Y" 	k="193" />
<hkern g1="guillemotright,guilsinglright" 	g2="T" 	k="158" />
<hkern g1="guillemotright,guilsinglright" 	g2="quoteright,quotedblright" 	k="188" />
<hkern g1="guillemotright,guilsinglright" 	g2="quotedbl,quotesingle" 	k="113" />
<hkern g1="guillemotright,guilsinglright" 	g2="v" 	k="20" />
<hkern g1="guillemotright,guilsinglright" 	g2="V" 	k="145" />
<hkern g1="guillemotright,guilsinglright" 	g2="W" 	k="135" />
<hkern g1="guillemotright,guilsinglright" 	g2="z" 	k="51" />
<hkern g1="guillemotright,guilsinglright" 	g2="S" 	k="39" />
<hkern g1="guillemotright,guilsinglright" 	g2="x" 	k="39" />
<hkern g1="guillemotright,guilsinglright" 	g2="Z" 	k="53" />
<hkern g1="guillemotright,guilsinglright" 	g2="X" 	k="66" />
<hkern g1="ampersand" 	g2="Y" 	k="90" />
<hkern g1="ampersand" 	g2="T" 	k="88" />
<hkern g1="ampersand" 	g2="quoteright,quotedblright" 	k="92" />
<hkern g1="two" 	g2="Y" 	k="76" />
<hkern g1="two" 	g2="T" 	k="41" />
<hkern g1="one" 	g2="A" 	k="25" />
<hkern g1="one" 	g2="J" 	k="20" />
<hkern g1="one" 	g2="Y" 	k="45" />
<hkern g1="three" 	g2="A" 	k="31" />
<hkern g1="three" 	g2="J" 	k="37" />
<hkern g1="three" 	g2="Y" 	k="29" />
<hkern g1="four" 	g2="A" 	k="31" />
<hkern g1="four" 	g2="J" 	k="33" />
<hkern g1="four" 	g2="Y" 	k="78" />
<hkern g1="four" 	g2="T" 	k="37" />
<hkern g1="five" 	g2="A" 	k="29" />
<hkern g1="five" 	g2="J" 	k="33" />
<hkern g1="five" 	g2="Y" 	k="39" />
<hkern g1="six" 	g2="A" 	k="29" />
<hkern g1="six" 	g2="J" 	k="41" />
<hkern g1="six" 	g2="Y" 	k="78" />
<hkern g1="six" 	g2="T" 	k="39" />
<hkern g1="seven" 	g2="A" 	k="106" />
<hkern g1="seven" 	g2="J" 	k="37" />
<hkern g1="seven" 	g2="comma,period,quotesinglbase,quotedblbase,ellipsis" 	k="133" />
<hkern g1="seven" 	g2="hyphen,endash,emdash" 	k="55" />
<hkern g1="eight" 	g2="A" 	k="29" />
<hkern g1="eight" 	g2="J" 	k="41" />
<hkern g1="eight" 	g2="Y" 	k="90" />
<hkern g1="eight" 	g2="T" 	k="51" />
<hkern g1="parenleft" 	g2="t" 	k="59" />
<hkern g1="parenleft" 	g2="y" 	k="51" />
<hkern g1="parenleft" 	g2="A" 	k="31" />
<hkern g1="parenleft" 	g2="J" 	k="-109" />
<hkern g1="parenleft" 	g2="f" 	k="47" />
<hkern g1="parenleft" 	g2="C,G,O,Q" 	k="59" />
<hkern g1="parenleft" 	g2="z" 	k="45" />
<hkern g1="parenleft" 	g2="a,c,d,e,g,o,q" 	k="94" />
<hkern g1="parenleft" 	g2="u" 	k="78" />
<hkern g1="parenleft" 	g2="s" 	k="70" />
<hkern g1="parenleft" 	g2="m,n,p,r" 	k="63" />
<hkern g1="parenleft" 	g2="i" 	k="33" />
<hkern g1="parenleft" 	g2="S" 	k="20" />
<hkern g1="nine" 	g2="A" 	k="74" />
<hkern g1="nine" 	g2="J" 	k="47" />
<hkern g1="nine" 	g2="Y" 	k="72" />
<hkern g1="nine" 	g2="T" 	k="47" />
<hkern g1="nine" 	g2="comma,period,quotesinglbase,quotedblbase,ellipsis" 	k="115" />
<hkern g1="nine" 	g2="Z" 	k="63" />
<hkern g1="braceleft" 	g2="t" 	k="49" />
<hkern g1="braceleft" 	g2="y" 	k="45" />
<hkern g1="braceleft" 	g2="A" 	k="47" />
<hkern g1="braceleft" 	g2="J" 	k="-82" />
<hkern g1="braceleft" 	g2="f" 	k="41" />
<hkern g1="braceleft" 	g2="C,G,O,Q" 	k="51" />
<hkern g1="braceleft" 	g2="z" 	k="51" />
<hkern g1="braceleft" 	g2="a,c,d,e,g,o,q" 	k="78" />
<hkern g1="braceleft" 	g2="u" 	k="66" />
<hkern g1="braceleft" 	g2="s" 	k="70" />
<hkern g1="braceleft" 	g2="m,n,p,r" 	k="63" />
<hkern g1="braceleft" 	g2="i" 	k="31" />
<hkern g1="braceleft" 	g2="S" 	k="25" />
<hkern g1="zero" 	g2="A" 	k="39" />
<hkern g1="zero" 	g2="J" 	k="41" />
<hkern g1="zero" 	g2="Y" 	k="86" />
<hkern g1="zero" 	g2="T" 	k="61" />
<hkern g1="zero" 	g2="comma,period,quotesinglbase,quotedblbase,ellipsis" 	k="43" />
<hkern g1="zero" 	g2="Z" 	k="37" />
<hkern g1="bracketleft" 	g2="t" 	k="57" />
<hkern g1="bracketleft" 	g2="y" 	k="51" />
<hkern g1="bracketleft" 	g2="A" 	k="66" />
<hkern g1="bracketleft" 	g2="J" 	k="-86" />
<hkern g1="bracketleft" 	g2="f" 	k="47" />
<hkern g1="bracketleft" 	g2="C,G,O,Q" 	k="57" />
<hkern g1="bracketleft" 	g2="z" 	k="68" />
<hkern g1="bracketleft" 	g2="a,c,d,e,g,o,q" 	k="92" />
<hkern g1="bracketleft" 	g2="u" 	k="80" />
<hkern g1="bracketleft" 	g2="s" 	k="82" />
<hkern g1="bracketleft" 	g2="m,n,p,r" 	k="78" />
<hkern g1="bracketleft" 	g2="i" 	k="35" />
<hkern g1="bracketleft" 	g2="S" 	k="37" />
<hkern g1="A" 	g2="t" 	k="47" />
<hkern g1="A" 	g2="y" 	k="51" />
<hkern g1="A" 	g2="Y" 	k="135" />
<hkern g1="A" 	g2="T" 	k="133" />
<hkern g1="A" 	g2="quoteright,quotedblright" 	k="137" />
<hkern g1="A" 	g2="quotedbl,quotesingle" 	k="117" />
<hkern g1="A" 	g2="f" 	k="45" />
<hkern g1="A" 	g2="v" 	k="53" />
<hkern g1="A" 	g2="w" 	k="47" />
<hkern g1="A" 	g2="U" 	k="29" />
<hkern g1="A" 	g2="one" 	k="37" />
<hkern g1="A" 	g2="seven" 	k="33" />
<hkern g1="A" 	g2="nine" 	k="37" />
<hkern g1="A" 	g2="zero" 	k="35" />
<hkern g1="A" 	g2="V" 	k="109" />
<hkern g1="A" 	g2="W" 	k="100" />
<hkern g1="A" 	g2="quoteleft,quotedblleft" 	k="147" />
<hkern g1="A" 	g2="C,G,O,Q" 	k="51" />
<hkern g1="A" 	g2="space" 	k="59" />
<hkern g1="A" 	g2="a,c,d,e,g,o,q" 	k="27" />
<hkern g1="A" 	g2="guillemotleft,guilsinglleft" 	k="25" />
<hkern g1="A" 	g2="ampersand" 	k="29" />
<hkern g1="A" 	g2="u" 	k="20" />
<hkern g1="A" 	g2="m,n,p,r" 	k="10" />
<hkern g1="A" 	g2="l" 	k="10" />
<hkern g1="A" 	g2="i" 	k="10" />
<hkern g1="A" 	g2="b,h,k" 	k="10" />
<hkern g1="A" 	g2="four" 	k="20" />
<hkern g1="A" 	g2="six" 	k="29" />
<hkern g1="A" 	g2="j" 	k="10" />
<hkern g1="A" 	g2="question" 	k="61" />
<hkern g1="A" 	g2="two" 	k="20" />
<hkern g1="A" 	g2="eight" 	k="29" />
<hkern g1="A" 	g2="parenright" 	k="27" />
<hkern g1="A" 	g2="asterisk" 	k="113" />
<hkern g1="A" 	g2="braceright" 	k="41" />
<hkern g1="A" 	g2="backslash" 	k="111" />
<hkern g1="A" 	g2="bracketright" 	k="57" />
<hkern g1="A" 	g2="copyright" 	k="63" />
<hkern g1="A" 	g2="registered" 	k="63" />
<hkern g1="A" 	g2="trademark" 	k="135" />
<hkern g1="B" 	g2="t" 	k="66" />
<hkern g1="B" 	g2="y" 	k="63" />
<hkern g1="B" 	g2="A" 	k="10" />
<hkern g1="B" 	g2="J" 	k="14" />
<hkern g1="B" 	g2="Y" 	k="55" />
<hkern g1="B" 	g2="T" 	k="25" />
<hkern g1="B" 	g2="f" 	k="68" />
<hkern g1="B" 	g2="z" 	k="80" />
<hkern g1="B" 	g2="a,c,d,e,g,o,q" 	k="25" />
<hkern g1="B" 	g2="u" 	k="39" />
<hkern g1="B" 	g2="s" 	k="51" />
<hkern g1="B" 	g2="m,n,p,r" 	k="41" />
<hkern g1="B" 	g2="l" 	k="41" />
<hkern g1="B" 	g2="i" 	k="39" />
<hkern g1="B" 	g2="b,h,k" 	k="41" />
<hkern g1="B" 	g2="Z" 	k="12" />
<hkern g1="B" 	g2="j" 	k="41" />
<hkern g1="D" 	g2="A" 	k="51" />
<hkern g1="D" 	g2="J" 	k="29" />
<hkern g1="D" 	g2="Y" 	k="88" />
<hkern g1="D" 	g2="T" 	k="63" />
<hkern g1="D" 	g2="f" 	k="16" />
<hkern g1="D" 	g2="seven" 	k="20" />
<hkern g1="D" 	g2="V" 	k="53" />
<hkern g1="D" 	g2="W" 	k="49" />
<hkern g1="D" 	g2="quoteleft,quotedblleft" 	k="20" />
<hkern g1="D" 	g2="comma,period,quotesinglbase,quotedblbase,ellipsis" 	k="66" />
<hkern g1="D" 	g2="z" 	k="25" />
<hkern g1="D" 	g2="a,c,d,e,g,o,q" 	k="39" />
<hkern g1="D" 	g2="u" 	k="35" />
<hkern g1="D" 	g2="s" 	k="35" />
<hkern g1="D" 	g2="m,n,p,r" 	k="41" />
<hkern g1="D" 	g2="l" 	k="35" />
<hkern g1="D" 	g2="i" 	k="35" />
<hkern g1="D" 	g2="b,h,k" 	k="35" />
<hkern g1="D" 	g2="S" 	k="12" />
<hkern g1="D" 	g2="x" 	k="23" />
<hkern g1="D" 	g2="Z" 	k="51" />
<hkern g1="D" 	g2="X" 	k="41" />
<hkern g1="D" 	g2="j" 	k="35" />
<hkern g1="D" 	g2="parenright" 	k="61" />
<hkern g1="D" 	g2="braceright" 	k="49" />
<hkern g1="D" 	g2="bracketright" 	k="57" />
<hkern g1="E" 	g2="t" 	k="45" />
<hkern g1="E" 	g2="y" 	k="63" />
<hkern g1="E" 	g2="f" 	k="55" />
<hkern g1="E" 	g2="v" 	k="63" />
<hkern g1="E" 	g2="w" 	k="63" />
<hkern g1="E" 	g2="C,G,O,Q" 	k="33" />
<hkern g1="E" 	g2="z" 	k="14" />
<hkern g1="E" 	g2="a,c,d,e,g,o,q" 	k="53" />
<hkern g1="E" 	g2="guillemotleft,guilsinglleft" 	k="45" />
<hkern g1="E" 	g2="u" 	k="47" />
<hkern g1="E" 	g2="s" 	k="20" />
<hkern g1="E" 	g2="m,n,p,r" 	k="39" />
<hkern g1="E" 	g2="l" 	k="27" />
<hkern g1="E" 	g2="i" 	k="39" />
<hkern g1="E" 	g2="b,h,k" 	k="27" />
<hkern g1="E" 	g2="x" 	k="12" />
<hkern g1="E" 	g2="j" 	k="39" />
<hkern g1="H,I,M,N" 	g2="t" 	k="49" />
<hkern g1="H,I,M,N" 	g2="y" 	k="49" />
<hkern g1="H,I,M,N" 	g2="f" 	k="51" />
<hkern g1="H,I,M,N" 	g2="v" 	k="51" />
<hkern g1="H,I,M,N" 	g2="w" 	k="51" />
<hkern g1="H,I,M,N" 	g2="comma,period,quotesinglbase,quotedblbase,ellipsis" 	k="18" />
<hkern g1="H,I,M,N" 	g2="z" 	k="51" />
<hkern g1="H,I,M,N" 	g2="a,c,d,e,g,o,q" 	k="47" />
<hkern g1="H,I,M,N" 	g2="u" 	k="25" />
<hkern g1="H,I,M,N" 	g2="s" 	k="61" />
<hkern g1="H,I,M,N" 	g2="m,n,p,r" 	k="23" />
<hkern g1="H,I,M,N" 	g2="l" 	k="23" />
<hkern g1="H,I,M,N" 	g2="i" 	k="23" />
<hkern g1="H,I,M,N" 	g2="b,h,k" 	k="23" />
<hkern g1="H,I,M,N" 	g2="x" 	k="47" />
<hkern g1="H,I,M,N" 	g2="j" 	k="23" />
<hkern g1="J" 	g2="t" 	k="49" />
<hkern g1="J" 	g2="y" 	k="47" />
<hkern g1="J" 	g2="f" 	k="53" />
<hkern g1="J" 	g2="v" 	k="47" />
<hkern g1="J" 	g2="w" 	k="49" />
<hkern g1="J" 	g2="comma,period,quotesinglbase,quotedblbase,ellipsis" 	k="20" />
<hkern g1="J" 	g2="z" 	k="55" />
<hkern g1="J" 	g2="a,c,d,e,g,o,q" 	k="47" />
<hkern g1="J" 	g2="u" 	k="25" />
<hkern g1="J" 	g2="s" 	k="63" />
<hkern g1="J" 	g2="m,n,p,r" 	k="23" />
<hkern g1="J" 	g2="l" 	k="25" />
<hkern g1="J" 	g2="i" 	k="23" />
<hkern g1="J" 	g2="b,h,k" 	k="25" />
<hkern g1="J" 	g2="x" 	k="51" />
<hkern g1="J" 	g2="j" 	k="23" />
<hkern g1="K" 	g2="t" 	k="61" />
<hkern g1="K" 	g2="y" 	k="123" />
<hkern g1="K" 	g2="f" 	k="59" />
<hkern g1="K" 	g2="v" 	k="123" />
<hkern g1="K" 	g2="w" 	k="119" />
<hkern g1="K" 	g2="zero" 	k="25" />
<hkern g1="K" 	g2="C,G,O,Q" 	k="92" />
<hkern g1="K" 	g2="space" 	k="27" />
<hkern g1="K" 	g2="a,c,d,e,g,o,q" 	k="55" />
<hkern g1="K" 	g2="guillemotleft,guilsinglleft" 	k="63" />
<hkern g1="K" 	g2="u" 	k="37" />
<hkern g1="K" 	g2="m,n,p,r" 	k="12" />
<hkern g1="K" 	g2="l" 	k="12" />
<hkern g1="K" 	g2="i" 	k="12" />
<hkern g1="K" 	g2="b,h,k" 	k="12" />
<hkern g1="K" 	g2="j" 	k="12" />
<hkern g1="K" 	g2="copyright" 	k="78" />
<hkern g1="K" 	g2="registered" 	k="78" />
<hkern g1="P" 	g2="t" 	k="20" />
<hkern g1="P" 	g2="y" 	k="12" />
<hkern g1="P" 	g2="A" 	k="115" />
<hkern g1="P" 	g2="J" 	k="16" />
<hkern g1="P" 	g2="Y" 	k="27" />
<hkern g1="P" 	g2="f" 	k="25" />
<hkern g1="P" 	g2="comma,period,quotesinglbase,quotedblbase,ellipsis" 	k="209" />
<hkern g1="P" 	g2="z" 	k="16" />
<hkern g1="P" 	g2="a,c,d,e,g,o,q" 	k="162" />
<hkern g1="P" 	g2="guillemotleft,guilsinglleft" 	k="90" />
<hkern g1="P" 	g2="colon,semicolon" 	k="41" />
<hkern g1="P" 	g2="hyphen,endash,emdash" 	k="129" />
<hkern g1="P" 	g2="u" 	k="86" />
<hkern g1="P" 	g2="s" 	k="125" />
<hkern g1="P" 	g2="m,n,p,r" 	k="102" />
<hkern g1="P" 	g2="l" 	k="23" />
<hkern g1="P" 	g2="i" 	k="18" />
<hkern g1="P" 	g2="b,h,k" 	k="23" />
<hkern g1="P" 	g2="j" 	k="18" />
<hkern g1="R" 	g2="t" 	k="72" />
<hkern g1="R" 	g2="y" 	k="98" />
<hkern g1="R" 	g2="Y" 	k="80" />
<hkern g1="R" 	g2="T" 	k="47" />
<hkern g1="R" 	g2="f" 	k="76" />
<hkern g1="R" 	g2="v" 	k="98" />
<hkern g1="R" 	g2="w" 	k="98" />
<hkern g1="R" 	g2="U" 	k="12" />
<hkern g1="R" 	g2="V" 	k="55" />
<hkern g1="R" 	g2="W" 	k="53" />
<hkern g1="R" 	g2="C,G,O,Q" 	k="20" />
<hkern g1="R" 	g2="z" 	k="14" />
<hkern g1="R" 	g2="a,c,d,e,g,o,q" 	k="86" />
<hkern g1="R" 	g2="guillemotleft,guilsinglleft" 	k="61" />
<hkern g1="R" 	g2="u" 	k="68" />
<hkern g1="R" 	g2="s" 	k="29" />
<hkern g1="R" 	g2="m,n,p,r" 	k="41" />
<hkern g1="R" 	g2="l" 	k="43" />
<hkern g1="R" 	g2="i" 	k="43" />
<hkern g1="R" 	g2="b,h,k" 	k="43" />
<hkern g1="R" 	g2="x" 	k="12" />
<hkern g1="R" 	g2="j" 	k="43" />
<hkern g1="R" 	g2="bracketright" 	k="31" />
<hkern g1="U" 	g2="t" 	k="45" />
<hkern g1="U" 	g2="y" 	k="39" />
<hkern g1="U" 	g2="A" 	k="31" />
<hkern g1="U" 	g2="f" 	k="57" />
<hkern g1="U" 	g2="v" 	k="39" />
<hkern g1="U" 	g2="w" 	k="41" />
<hkern g1="U" 	g2="comma,period,quotesinglbase,quotedblbase,ellipsis" 	k="47" />
<hkern g1="U" 	g2="z" 	k="63" />
<hkern g1="U" 	g2="a,c,d,e,g,o,q" 	k="70" />
<hkern g1="U" 	g2="u" 	k="49" />
<hkern g1="U" 	g2="s" 	k="70" />
<hkern g1="U" 	g2="m,n,p,r" 	k="41" />
<hkern g1="U" 	g2="l" 	k="43" />
<hkern g1="U" 	g2="i" 	k="43" />
<hkern g1="U" 	g2="b,h,k" 	k="43" />
<hkern g1="U" 	g2="x" 	k="61" />
<hkern g1="U" 	g2="j" 	k="43" />
<hkern g1="Y" 	g2="t" 	k="172" />
<hkern g1="Y" 	g2="y" 	k="236" />
<hkern g1="Y" 	g2="A" 	k="135" />
<hkern g1="Y" 	g2="J" 	k="29" />
<hkern g1="Y" 	g2="f" 	k="137" />
<hkern g1="Y" 	g2="v" 	k="238" />
<hkern g1="Y" 	g2="w" 	k="240" />
<hkern g1="Y" 	g2="nine" 	k="63" />
<hkern g1="Y" 	g2="zero" 	k="84" />
<hkern g1="Y" 	g2="C,G,O,Q" 	k="86" />
<hkern g1="Y" 	g2="space" 	k="84" />
<hkern g1="Y" 	g2="comma,period,quotesinglbase,quotedblbase,ellipsis" 	k="184" />
<hkern g1="Y" 	g2="z" 	k="215" />
<hkern g1="Y" 	g2="a,c,d,e,g,o,q" 	k="311" />
<hkern g1="Y" 	g2="guillemotleft,guilsinglleft" 	k="193" />
<hkern g1="Y" 	g2="at" 	k="139" />
<hkern g1="Y" 	g2="colon,semicolon" 	k="133" />
<hkern g1="Y" 	g2="hyphen,endash,emdash" 	k="162" />
<hkern g1="Y" 	g2="slash" 	k="133" />
<hkern g1="Y" 	g2="guillemotright,guilsinglright" 	k="141" />
<hkern g1="Y" 	g2="ampersand" 	k="68" />
<hkern g1="Y" 	g2="u" 	k="252" />
<hkern g1="Y" 	g2="s" 	k="270" />
<hkern g1="Y" 	g2="m,n,p,r" 	k="262" />
<hkern g1="Y" 	g2="l" 	k="37" />
<hkern g1="Y" 	g2="i" 	k="127" />
<hkern g1="Y" 	g2="b,h,k" 	k="37" />
<hkern g1="Y" 	g2="S" 	k="47" />
<hkern g1="Y" 	g2="four" 	k="156" />
<hkern g1="Y" 	g2="six" 	k="147" />
<hkern g1="Y" 	g2="x" 	k="229" />
<hkern g1="Y" 	g2="j" 	k="129" />
<hkern g1="Y" 	g2="two" 	k="47" />
<hkern g1="Y" 	g2="eight" 	k="86" />
<hkern g1="Y" 	g2="copyright" 	k="92" />
<hkern g1="Y" 	g2="registered" 	k="92" />
<hkern g1="Y" 	g2="trademark" 	k="-29" />
<hkern g1="Y" 	g2="five" 	k="29" />
<hkern g1="Y" 	g2="bar" 	k="27" />
<hkern g1="F" 	g2="t" 	k="55" />
<hkern g1="F" 	g2="y" 	k="61" />
<hkern g1="F" 	g2="A" 	k="104" />
<hkern g1="F" 	g2="J" 	k="10" />
<hkern g1="F" 	g2="f" 	k="68" />
<hkern g1="F" 	g2="comma,period,quotesinglbase,quotedblbase,ellipsis" 	k="201" />
<hkern g1="F" 	g2="z" 	k="96" />
<hkern g1="F" 	g2="a,c,d,e,g,o,q" 	k="131" />
<hkern g1="F" 	g2="guillemotleft,guilsinglleft" 	k="72" />
<hkern g1="F" 	g2="colon,semicolon" 	k="31" />
<hkern g1="F" 	g2="hyphen,endash,emdash" 	k="68" />
<hkern g1="F" 	g2="guillemotright,guilsinglright" 	k="33" />
<hkern g1="F" 	g2="u" 	k="117" />
<hkern g1="F" 	g2="s" 	k="119" />
<hkern g1="F" 	g2="m,n,p,r" 	k="113" />
<hkern g1="F" 	g2="l" 	k="45" />
<hkern g1="F" 	g2="i" 	k="84" />
<hkern g1="F" 	g2="b,h,k" 	k="45" />
<hkern g1="F" 	g2="S" 	k="23" />
<hkern g1="F" 	g2="j" 	k="86" />
<hkern g1="L" 	g2="t" 	k="66" />
<hkern g1="L" 	g2="y" 	k="172" />
<hkern g1="L" 	g2="Y" 	k="215" />
<hkern g1="L" 	g2="T" 	k="184" />
<hkern g1="L" 	g2="quoteright,quotedblright" 	k="188" />
<hkern g1="L" 	g2="quotedbl,quotesingle" 	k="207" />
<hkern g1="L" 	g2="f" 	k="63" />
<hkern g1="L" 	g2="v" 	k="174" />
<hkern g1="L" 	g2="w" 	k="156" />
<hkern g1="L" 	g2="U" 	k="31" />
<hkern g1="L" 	g2="nine" 	k="23" />
<hkern g1="L" 	g2="zero" 	k="25" />
<hkern g1="L" 	g2="V" 	k="199" />
<hkern g1="L" 	g2="W" 	k="193" />
<hkern g1="L" 	g2="quoteleft,quotedblleft" 	k="188" />
<hkern g1="L" 	g2="C,G,O,Q" 	k="78" />
<hkern g1="L" 	g2="space" 	k="68" />
<hkern g1="L" 	g2="a,c,d,e,g,o,q" 	k="57" />
<hkern g1="L" 	g2="guillemotleft,guilsinglleft" 	k="117" />
<hkern g1="L" 	g2="hyphen,endash,emdash" 	k="117" />
<hkern g1="L" 	g2="u" 	k="31" />
<hkern g1="L" 	g2="m,n,p,r" 	k="10" />
<hkern g1="L" 	g2="l" 	k="10" />
<hkern g1="L" 	g2="i" 	k="10" />
<hkern g1="L" 	g2="b,h,k" 	k="10" />
<hkern g1="L" 	g2="four" 	k="29" />
<hkern g1="L" 	g2="j" 	k="12" />
<hkern g1="L" 	g2="question" 	k="55" />
<hkern g1="L" 	g2="asterisk" 	k="225" />
<hkern g1="L" 	g2="backslash" 	k="127" />
<hkern g1="L" 	g2="bracketright" 	k="35" />
<hkern g1="L" 	g2="copyright" 	k="160" />
<hkern g1="L" 	g2="registered" 	k="160" />
<hkern g1="L" 	g2="trademark" 	k="229" />
<hkern g1="C" 	g2="t" 	k="78" />
<hkern g1="C" 	g2="y" 	k="131" />
<hkern g1="C" 	g2="f" 	k="78" />
<hkern g1="C" 	g2="v" 	k="133" />
<hkern g1="C" 	g2="w" 	k="127" />
<hkern g1="C" 	g2="nine" 	k="23" />
<hkern g1="C" 	g2="C,G,O,Q" 	k="47" />
<hkern g1="C" 	g2="z" 	k="12" />
<hkern g1="C" 	g2="a,c,d,e,g,o,q" 	k="41" />
<hkern g1="C" 	g2="guillemotleft,guilsinglleft" 	k="53" />
<hkern g1="C" 	g2="u" 	k="41" />
<hkern g1="C" 	g2="m,n,p,r" 	k="29" />
<hkern g1="C" 	g2="l" 	k="23" />
<hkern g1="C" 	g2="i" 	k="29" />
<hkern g1="C" 	g2="b,h,k" 	k="23" />
<hkern g1="C" 	g2="j" 	k="29" />
<hkern g1="C" 	g2="copyright" 	k="61" />
<hkern g1="C" 	g2="registered" 	k="61" />
<hkern g1="T" 	g2="t" 	k="201" />
<hkern g1="T" 	g2="y" 	k="223" />
<hkern g1="T" 	g2="A" 	k="133" />
<hkern g1="T" 	g2="J" 	k="12" />
<hkern g1="T" 	g2="f" 	k="162" />
<hkern g1="T" 	g2="v" 	k="225" />
<hkern g1="T" 	g2="w" 	k="227" />
<hkern g1="T" 	g2="nine" 	k="41" />
<hkern g1="T" 	g2="zero" 	k="63" />
<hkern g1="T" 	g2="C,G,O,Q" 	k="63" />
<hkern g1="T" 	g2="space" 	k="59" />
<hkern g1="T" 	g2="comma,period,quotesinglbase,quotedblbase,ellipsis" 	k="129" />
<hkern g1="T" 	g2="z" 	k="215" />
<hkern g1="T" 	g2="a,c,d,e,g,o,q" 	k="231" />
<hkern g1="T" 	g2="guillemotleft,guilsinglleft" 	k="158" />
<hkern g1="T" 	g2="at" 	k="123" />
<hkern g1="T" 	g2="colon,semicolon" 	k="102" />
<hkern g1="T" 	g2="hyphen,endash,emdash" 	k="102" />
<hkern g1="T" 	g2="slash" 	k="98" />
<hkern g1="T" 	g2="guillemotright,guilsinglright" 	k="139" />
<hkern g1="T" 	g2="ampersand" 	k="29" />
<hkern g1="T" 	g2="u" 	k="233" />
<hkern g1="T" 	g2="s" 	k="223" />
<hkern g1="T" 	g2="m,n,p,r" 	k="236" />
<hkern g1="T" 	g2="l" 	k="68" />
<hkern g1="T" 	g2="i" 	k="193" />
<hkern g1="T" 	g2="b,h,k" 	k="68" />
<hkern g1="T" 	g2="four" 	k="117" />
<hkern g1="T" 	g2="six" 	k="129" />
<hkern g1="T" 	g2="x" 	k="211" />
<hkern g1="T" 	g2="j" 	k="193" />
<hkern g1="T" 	g2="eight" 	k="43" />
<hkern g1="T" 	g2="copyright" 	k="76" />
<hkern g1="T" 	g2="registered" 	k="76" />
<hkern g1="G" 	g2="t" 	k="31" />
<hkern g1="G" 	g2="y" 	k="37" />
<hkern g1="G" 	g2="Y" 	k="29" />
<hkern g1="G" 	g2="f" 	k="37" />
<hkern g1="G" 	g2="v" 	k="37" />
<hkern g1="G" 	g2="w" 	k="35" />
<hkern g1="G" 	g2="V" 	k="27" />
<hkern g1="G" 	g2="W" 	k="25" />
<hkern g1="G" 	g2="z" 	k="37" />
<hkern g1="G" 	g2="a,c,d,e,g,o,q" 	k="27" />
<hkern g1="G" 	g2="u" 	k="31" />
<hkern g1="G" 	g2="s" 	k="23" />
<hkern g1="G" 	g2="m,n,p,r" 	k="31" />
<hkern g1="G" 	g2="l" 	k="31" />
<hkern g1="G" 	g2="i" 	k="33" />
<hkern g1="G" 	g2="b,h,k" 	k="31" />
<hkern g1="G" 	g2="x" 	k="29" />
<hkern g1="G" 	g2="j" 	k="33" />
<hkern g1="V" 	g2="t" 	k="121" />
<hkern g1="V" 	g2="y" 	k="152" />
<hkern g1="V" 	g2="A" 	k="109" />
<hkern g1="V" 	g2="J" 	k="18" />
<hkern g1="V" 	g2="f" 	k="121" />
<hkern g1="V" 	g2="C,G,O,Q" 	k="51" />
<hkern g1="V" 	g2="comma,period,quotesinglbase,quotedblbase,ellipsis" 	k="170" />
<hkern g1="V" 	g2="z" 	k="145" />
<hkern g1="V" 	g2="a,c,d,e,g,o,q" 	k="215" />
<hkern g1="V" 	g2="guillemotleft,guilsinglleft" 	k="145" />
<hkern g1="V" 	g2="colon,semicolon" 	k="92" />
<hkern g1="V" 	g2="hyphen,endash,emdash" 	k="106" />
<hkern g1="V" 	g2="guillemotright,guilsinglright" 	k="94" />
<hkern g1="V" 	g2="u" 	k="174" />
<hkern g1="V" 	g2="s" 	k="213" />
<hkern g1="V" 	g2="m,n,p,r" 	k="178" />
<hkern g1="V" 	g2="l" 	k="25" />
<hkern g1="V" 	g2="i" 	k="106" />
<hkern g1="V" 	g2="b,h,k" 	k="25" />
<hkern g1="V" 	g2="S" 	k="33" />
<hkern g1="V" 	g2="j" 	k="106" />
<hkern g1="S" 	g2="t" 	k="37" />
<hkern g1="S" 	g2="y" 	k="41" />
<hkern g1="S" 	g2="A" 	k="25" />
<hkern g1="S" 	g2="Y" 	k="27" />
<hkern g1="S" 	g2="f" 	k="45" />
<hkern g1="S" 	g2="v" 	k="43" />
<hkern g1="S" 	g2="w" 	k="41" />
<hkern g1="S" 	g2="V" 	k="27" />
<hkern g1="S" 	g2="W" 	k="25" />
<hkern g1="S" 	g2="z" 	k="57" />
<hkern g1="S" 	g2="a,c,d,e,g,o,q" 	k="12" />
<hkern g1="S" 	g2="u" 	k="23" />
<hkern g1="S" 	g2="s" 	k="25" />
<hkern g1="S" 	g2="m,n,p,r" 	k="25" />
<hkern g1="S" 	g2="l" 	k="25" />
<hkern g1="S" 	g2="i" 	k="25" />
<hkern g1="S" 	g2="b,h,k" 	k="25" />
<hkern g1="S" 	g2="x" 	k="45" />
<hkern g1="S" 	g2="j" 	k="25" />
<hkern g1="Z" 	g2="t" 	k="63" />
<hkern g1="Z" 	g2="y" 	k="127" />
<hkern g1="Z" 	g2="f" 	k="63" />
<hkern g1="Z" 	g2="v" 	k="129" />
<hkern g1="Z" 	g2="w" 	k="123" />
<hkern g1="Z" 	g2="C,G,O,Q" 	k="43" />
<hkern g1="Z" 	g2="z" 	k="10" />
<hkern g1="Z" 	g2="a,c,d,e,g,o,q" 	k="33" />
<hkern g1="Z" 	g2="guillemotleft,guilsinglleft" 	k="27" />
<hkern g1="Z" 	g2="u" 	k="31" />
<hkern g1="Z" 	g2="s" 	k="10" />
<hkern g1="Z" 	g2="m,n,p,r" 	k="23" />
<hkern g1="Z" 	g2="l" 	k="23" />
<hkern g1="Z" 	g2="i" 	k="23" />
<hkern g1="Z" 	g2="b,h,k" 	k="23" />
<hkern g1="Z" 	g2="j" 	k="23" />
<hkern g1="Z" 	g2="copyright" 	k="66" />
<hkern g1="Z" 	g2="registered" 	k="66" />
<hkern g1="W" 	g2="t" 	k="119" />
<hkern g1="W" 	g2="y" 	k="152" />
<hkern g1="W" 	g2="A" 	k="102" />
<hkern g1="W" 	g2="J" 	k="16" />
<hkern g1="W" 	g2="f" 	k="119" />
<hkern g1="W" 	g2="C,G,O,Q" 	k="49" />
<hkern g1="W" 	g2="comma,period,quotesinglbase,quotedblbase,ellipsis" 	k="160" />
<hkern g1="W" 	g2="z" 	k="137" />
<hkern g1="W" 	g2="a,c,d,e,g,o,q" 	k="203" />
<hkern g1="W" 	g2="guillemotleft,guilsinglleft" 	k="137" />
<hkern g1="W" 	g2="colon,semicolon" 	k="86" />
<hkern g1="W" 	g2="hyphen,endash,emdash" 	k="98" />
<hkern g1="W" 	g2="guillemotright,guilsinglright" 	k="90" />
<hkern g1="W" 	g2="u" 	k="164" />
<hkern g1="W" 	g2="s" 	k="205" />
<hkern g1="W" 	g2="m,n,p,r" 	k="166" />
<hkern g1="W" 	g2="l" 	k="23" />
<hkern g1="W" 	g2="i" 	k="104" />
<hkern g1="W" 	g2="b,h,k" 	k="23" />
<hkern g1="W" 	g2="S" 	k="31" />
<hkern g1="W" 	g2="j" 	k="104" />
<hkern g1="X" 	g2="t" 	k="92" />
<hkern g1="X" 	g2="y" 	k="121" />
<hkern g1="X" 	g2="f" 	k="90" />
<hkern g1="X" 	g2="C,G,O,Q" 	k="41" />
<hkern g1="X" 	g2="z" 	k="10" />
<hkern g1="X" 	g2="a,c,d,e,g,o,q" 	k="78" />
<hkern g1="X" 	g2="guillemotleft,guilsinglleft" 	k="66" />
<hkern g1="X" 	g2="u" 	k="66" />
<hkern g1="X" 	g2="s" 	k="23" />
<hkern g1="X" 	g2="m,n,p,r" 	k="39" />
<hkern g1="X" 	g2="l" 	k="35" />
<hkern g1="X" 	g2="i" 	k="39" />
<hkern g1="X" 	g2="b,h,k" 	k="35" />
<hkern g1="X" 	g2="j" 	k="39" />
<hkern g1="O,Q" 	g2="A" 	k="51" />
<hkern g1="O,Q" 	g2="J" 	k="27" />
<hkern g1="O,Q" 	g2="Y" 	k="86" />
<hkern g1="O,Q" 	g2="T" 	k="61" />
<hkern g1="O,Q" 	g2="f" 	k="14" />
<hkern g1="O,Q" 	g2="seven" 	k="20" />
<hkern g1="O,Q" 	g2="V" 	k="53" />
<hkern g1="O,Q" 	g2="W" 	k="49" />
<hkern g1="O,Q" 	g2="quoteleft,quotedblleft" 	k="20" />
<hkern g1="O,Q" 	g2="comma,period,quotesinglbase,quotedblbase,ellipsis" 	k="70" />
<hkern g1="O,Q" 	g2="z" 	k="23" />
<hkern g1="O,Q" 	g2="a,c,d,e,g,o,q" 	k="41" />
<hkern g1="O,Q" 	g2="u" 	k="35" />
<hkern g1="O,Q" 	g2="s" 	k="35" />
<hkern g1="O,Q" 	g2="m,n,p,r" 	k="39" />
<hkern g1="O,Q" 	g2="l" 	k="33" />
<hkern g1="O,Q" 	g2="i" 	k="35" />
<hkern g1="O,Q" 	g2="b,h,k" 	k="33" />
<hkern g1="O,Q" 	g2="S" 	k="12" />
<hkern g1="O,Q" 	g2="x" 	k="20" />
<hkern g1="O,Q" 	g2="Z" 	k="53" />
<hkern g1="O,Q" 	g2="X" 	k="41" />
<hkern g1="O,Q" 	g2="j" 	k="35" />
<hkern g1="O,Q" 	g2="parenright" 	k="59" />
<hkern g1="O,Q" 	g2="braceright" 	k="49" />
<hkern g1="O,Q" 	g2="bracketright" 	k="57" />
<hkern g1="t" 	g2="A" 	k="76" />
<hkern g1="t" 	g2="J" 	k="78" />
<hkern g1="t" 	g2="Y" 	k="197" />
<hkern g1="t" 	g2="T" 	k="174" />
<hkern g1="t" 	g2="quoteright,quotedblright" 	k="25" />
<hkern g1="t" 	g2="quotedbl,quotesingle" 	k="18" />
<hkern g1="t" 	g2="B,D,E,F,H,I,K,L,M,N,P,R" 	k="47" />
<hkern g1="t" 	g2="U" 	k="37" />
<hkern g1="t" 	g2="V" 	k="133" />
<hkern g1="t" 	g2="W" 	k="127" />
<hkern g1="t" 	g2="quoteleft,quotedblleft" 	k="29" />
<hkern g1="t" 	g2="space" 	k="39" />
<hkern g1="t" 	g2="comma,period,quotesinglbase,quotedblbase,ellipsis" 	k="43" />
<hkern g1="t" 	g2="a,c,d,e,g,o,q" 	k="25" />
<hkern g1="t" 	g2="guillemotleft,guilsinglleft" 	k="23" />
<hkern g1="t" 	g2="hyphen,endash,emdash" 	k="25" />
<hkern g1="t" 	g2="slash" 	k="20" />
<hkern g1="t" 	g2="S" 	k="74" />
<hkern g1="t" 	g2="Z" 	k="96" />
<hkern g1="t" 	g2="X" 	k="115" />
<hkern g1="t" 	g2="parenright" 	k="74" />
<hkern g1="t" 	g2="asterisk" 	k="18" />
<hkern g1="t" 	g2="braceright" 	k="57" />
<hkern g1="t" 	g2="backslash" 	k="39" />
<hkern g1="t" 	g2="bracketright" 	k="66" />
<hkern g1="t" 	g2="trademark" 	k="29" />
<hkern g1="l" 	g2="A" 	k="10" />
<hkern g1="l" 	g2="J" 	k="47" />
<hkern g1="l" 	g2="Y" 	k="39" />
<hkern g1="l" 	g2="T" 	k="68" />
<hkern g1="l" 	g2="B,D,E,F,H,I,K,L,M,N,P,R" 	k="23" />
<hkern g1="l" 	g2="U" 	k="43" />
<hkern g1="l" 	g2="V" 	k="25" />
<hkern g1="l" 	g2="W" 	k="23" />
<hkern g1="l" 	g2="C,G,O,Q" 	k="33" />
<hkern g1="l" 	g2="S" 	k="31" />
<hkern g1="l" 	g2="Z" 	k="27" />
<hkern g1="l" 	g2="X" 	k="35" />
<hkern g1="i" 	g2="A" 	k="10" />
<hkern g1="i" 	g2="J" 	k="49" />
<hkern g1="i" 	g2="Y" 	k="127" />
<hkern g1="i" 	g2="T" 	k="188" />
<hkern g1="i" 	g2="B,D,E,F,H,I,K,L,M,N,P,R" 	k="23" />
<hkern g1="i" 	g2="U" 	k="43" />
<hkern g1="i" 	g2="V" 	k="106" />
<hkern g1="i" 	g2="W" 	k="104" />
<hkern g1="i" 	g2="C,G,O,Q" 	k="35" />
<hkern g1="i" 	g2="S" 	k="29" />
<hkern g1="i" 	g2="Z" 	k="27" />
<hkern g1="i" 	g2="X" 	k="41" />
<hkern g1="i" 	g2="parenright" 	k="33" />
<hkern g1="i" 	g2="braceright" 	k="31" />
<hkern g1="i" 	g2="bracketright" 	k="35" />
<hkern g1="c" 	g2="J" 	k="78" />
<hkern g1="c" 	g2="Y" 	k="274" />
<hkern g1="c" 	g2="T" 	k="211" />
<hkern g1="c" 	g2="quotedbl,quotesingle" 	k="20" />
<hkern g1="c" 	g2="B,D,E,F,H,I,K,L,M,N,P,R" 	k="53" />
<hkern g1="c" 	g2="U" 	k="72" />
<hkern g1="c" 	g2="V" 	k="201" />
<hkern g1="c" 	g2="W" 	k="188" />
<hkern g1="c" 	g2="C,G,O,Q" 	k="31" />
<hkern g1="c" 	g2="a,c,d,e,g,o,q" 	k="27" />
<hkern g1="c" 	g2="guillemotleft,guilsinglleft" 	k="37" />
<hkern g1="c" 	g2="hyphen,endash,emdash" 	k="25" />
<hkern g1="c" 	g2="S" 	k="27" />
<hkern g1="c" 	g2="X" 	k="18" />
<hkern g1="c" 	g2="question" 	k="49" />
<hkern g1="c" 	g2="parenright" 	k="68" />
<hkern g1="c" 	g2="asterisk" 	k="37" />
<hkern g1="c" 	g2="braceright" 	k="63" />
<hkern g1="c" 	g2="backslash" 	k="78" />
<hkern g1="c" 	g2="bracketright" 	k="78" />
<hkern g1="c" 	g2="trademark" 	k="33" />
<hkern g1="r" 	g2="A" 	k="82" />
<hkern g1="r" 	g2="J" 	k="78" />
<hkern g1="r" 	g2="Y" 	k="201" />
<hkern g1="r" 	g2="T" 	k="172" />
<hkern g1="r" 	g2="B,D,E,F,H,I,K,L,M,N,P,R" 	k="43" />
<hkern g1="r" 	g2="U" 	k="35" />
<hkern g1="r" 	g2="V" 	k="133" />
<hkern g1="r" 	g2="W" 	k="127" />
<hkern g1="r" 	g2="space" 	k="43" />
<hkern g1="r" 	g2="comma,period,quotesinglbase,quotedblbase,ellipsis" 	k="72" />
<hkern g1="r" 	g2="a,c,d,e,g,o,q" 	k="29" />
<hkern g1="r" 	g2="guillemotleft,guilsinglleft" 	k="25" />
<hkern g1="r" 	g2="hyphen,endash,emdash" 	k="41" />
<hkern g1="r" 	g2="slash" 	k="31" />
<hkern g1="r" 	g2="S" 	k="74" />
<hkern g1="r" 	g2="Z" 	k="125" />
<hkern g1="r" 	g2="X" 	k="121" />
<hkern g1="r" 	g2="parenright" 	k="84" />
<hkern g1="r" 	g2="braceright" 	k="61" />
<hkern g1="r" 	g2="backslash" 	k="43" />
<hkern g1="r" 	g2="bracketright" 	k="74" />
<hkern g1="e" 	g2="y" 	k="12" />
<hkern g1="e" 	g2="A" 	k="18" />
<hkern g1="e" 	g2="J" 	k="82" />
<hkern g1="e" 	g2="Y" 	k="272" />
<hkern g1="e" 	g2="T" 	k="217" />
<hkern g1="e" 	g2="quotedbl,quotesingle" 	k="33" />
<hkern g1="e" 	g2="v" 	k="12" />
<hkern g1="e" 	g2="w" 	k="10" />
<hkern g1="e" 	g2="B,D,E,F,H,I,K,L,M,N,P,R" 	k="59" />
<hkern g1="e" 	g2="U" 	k="63" />
<hkern g1="e" 	g2="V" 	k="227" />
<hkern g1="e" 	g2="W" 	k="213" />
<hkern g1="e" 	g2="quoteleft,quotedblleft" 	k="18" />
<hkern g1="e" 	g2="C,G,O,Q" 	k="25" />
<hkern g1="e" 	g2="S" 	k="49" />
<hkern g1="e" 	g2="Z" 	k="37" />
<hkern g1="e" 	g2="X" 	k="53" />
<hkern g1="e" 	g2="question" 	k="66" />
<hkern g1="e" 	g2="parenright" 	k="84" />
<hkern g1="e" 	g2="asterisk" 	k="47" />
<hkern g1="e" 	g2="braceright" 	k="78" />
<hkern g1="e" 	g2="backslash" 	k="92" />
<hkern g1="e" 	g2="bracketright" 	k="86" />
<hkern g1="e" 	g2="trademark" 	k="45" />
<hkern g1="f" 	g2="A" 	k="76" />
<hkern g1="f" 	g2="J" 	k="61" />
<hkern g1="f" 	g2="Y" 	k="-25" />
<hkern g1="f" 	g2="B,D,E,F,H,I,K,L,M,N,P,R" 	k="18" />
<hkern g1="f" 	g2="U" 	k="14" />
<hkern g1="f" 	g2="comma,period,quotesinglbase,quotedblbase,ellipsis" 	k="51" />
<hkern g1="f" 	g2="a,c,d,e,g,o,q" 	k="27" />
<hkern g1="f" 	g2="guillemotleft,guilsinglleft" 	k="25" />
<hkern g1="f" 	g2="hyphen,endash,emdash" 	k="33" />
<hkern g1="f" 	g2="S" 	k="43" />
<hkern g1="v" 	g2="A" 	k="53" />
<hkern g1="v" 	g2="J" 	k="86" />
<hkern g1="v" 	g2="Y" 	k="233" />
<hkern g1="v" 	g2="T" 	k="221" />
<hkern g1="v" 	g2="B,D,E,F,H,I,K,L,M,N,P,R" 	k="49" />
<hkern g1="v" 	g2="U" 	k="39" />
<hkern g1="v" 	g2="comma,period,quotesinglbase,quotedblbase,ellipsis" 	k="76" />
<hkern g1="v" 	g2="a,c,d,e,g,o,q" 	k="27" />
<hkern g1="v" 	g2="guillemotleft,guilsinglleft" 	k="23" />
<hkern g1="v" 	g2="hyphen,endash,emdash" 	k="18" />
<hkern g1="v" 	g2="s" 	k="14" />
<hkern g1="v" 	g2="S" 	k="78" />
<hkern g1="v" 	g2="Z" 	k="117" />
<hkern g1="j" 	g2="A" 	k="10" />
<hkern g1="j" 	g2="J" 	k="27" />
<hkern g1="j" 	g2="Y" 	k="125" />
<hkern g1="j" 	g2="T" 	k="188" />
<hkern g1="j" 	g2="B,D,E,F,H,I,K,L,M,N,P,R" 	k="23" />
<hkern g1="j" 	g2="U" 	k="43" />
<hkern g1="j" 	g2="V" 	k="106" />
<hkern g1="j" 	g2="W" 	k="104" />
<hkern g1="j" 	g2="C,G,O,Q" 	k="33" />
<hkern g1="j" 	g2="S" 	k="29" />
<hkern g1="j" 	g2="Z" 	k="27" />
<hkern g1="j" 	g2="X" 	k="41" />
<hkern g1="s" 	g2="y" 	k="14" />
<hkern g1="s" 	g2="J" 	k="84" />
<hkern g1="s" 	g2="Y" 	k="258" />
<hkern g1="s" 	g2="T" 	k="219" />
<hkern g1="s" 	g2="quotedbl,quotesingle" 	k="25" />
<hkern g1="s" 	g2="v" 	k="14" />
<hkern g1="s" 	g2="w" 	k="14" />
<hkern g1="s" 	g2="B,D,E,F,H,I,K,L,M,N,P,R" 	k="59" />
<hkern g1="s" 	g2="U" 	k="70" />
<hkern g1="s" 	g2="V" 	k="209" />
<hkern g1="s" 	g2="W" 	k="197" />
<hkern g1="s" 	g2="C,G,O,Q" 	k="41" />
<hkern g1="s" 	g2="S" 	k="20" />
<hkern g1="s" 	g2="Z" 	k="18" />
<hkern g1="s" 	g2="X" 	k="31" />
<hkern g1="s" 	g2="question" 	k="55" />
<hkern g1="s" 	g2="parenright" 	k="74" />
<hkern g1="s" 	g2="asterisk" 	k="39" />
<hkern g1="s" 	g2="braceright" 	k="63" />
<hkern g1="s" 	g2="backslash" 	k="90" />
<hkern g1="s" 	g2="bracketright" 	k="82" />
<hkern g1="s" 	g2="trademark" 	k="37" />
<hkern g1="k" 	g2="J" 	k="63" />
<hkern g1="k" 	g2="Y" 	k="229" />
<hkern g1="k" 	g2="T" 	k="213" />
<hkern g1="k" 	g2="quoteright,quotedblright" 	k="74" />
<hkern g1="k" 	g2="quotedbl,quotesingle" 	k="53" />
<hkern g1="k" 	g2="B,D,E,F,H,I,K,L,M,N,P,R" 	k="55" />
<hkern g1="k" 	g2="U" 	k="66" />
<hkern g1="k" 	g2="V" 	k="203" />
<hkern g1="k" 	g2="W" 	k="193" />
<hkern g1="k" 	g2="quoteleft,quotedblleft" 	k="74" />
<hkern g1="k" 	g2="C,G,O,Q" 	k="45" />
<hkern g1="k" 	g2="a,c,d,e,g,o,q" 	k="37" />
<hkern g1="k" 	g2="guillemotleft,guilsinglleft" 	k="47" />
<hkern g1="k" 	g2="hyphen,endash,emdash" 	k="16" />
<hkern g1="k" 	g2="S" 	k="20" />
<hkern g1="k" 	g2="question" 	k="51" />
<hkern g1="k" 	g2="parenright" 	k="39" />
<hkern g1="k" 	g2="asterisk" 	k="45" />
<hkern g1="k" 	g2="braceright" 	k="49" />
<hkern g1="k" 	g2="backslash" 	k="76" />
<hkern g1="k" 	g2="bracketright" 	k="63" />
<hkern g1="k" 	g2="trademark" 	k="63" />
<hkern g1="y" 	g2="A" 	k="53" />
<hkern g1="y" 	g2="J" 	k="86" />
<hkern g1="y" 	g2="Y" 	k="238" />
<hkern g1="y" 	g2="T" 	k="221" />
<hkern g1="y" 	g2="B,D,E,F,H,I,K,L,M,N,P,R" 	k="51" />
<hkern g1="y" 	g2="U" 	k="41" />
<hkern g1="y" 	g2="V" 	k="154" />
<hkern g1="y" 	g2="W" 	k="143" />
<hkern g1="y" 	g2="space" 	k="47" />
<hkern g1="y" 	g2="comma,period,quotesinglbase,quotedblbase,ellipsis" 	k="74" />
<hkern g1="y" 	g2="a,c,d,e,g,o,q" 	k="27" />
<hkern g1="y" 	g2="guillemotleft,guilsinglleft" 	k="20" />
<hkern g1="y" 	g2="slash" 	k="25" />
<hkern g1="y" 	g2="s" 	k="14" />
<hkern g1="y" 	g2="S" 	k="82" />
<hkern g1="y" 	g2="Z" 	k="117" />
<hkern g1="y" 	g2="X" 	k="121" />
<hkern g1="y" 	g2="question" 	k="27" />
<hkern g1="y" 	g2="parenright" 	k="84" />
<hkern g1="y" 	g2="braceright" 	k="61" />
<hkern g1="y" 	g2="backslash" 	k="61" />
<hkern g1="y" 	g2="bracketright" 	k="74" />
<hkern g1="y" 	g2="trademark" 	k="16" />
<hkern g1="w" 	g2="A" 	k="49" />
<hkern g1="w" 	g2="J" 	k="80" />
<hkern g1="w" 	g2="Y" 	k="236" />
<hkern g1="w" 	g2="T" 	k="219" />
<hkern g1="w" 	g2="B,D,E,F,H,I,K,L,M,N,P,R" 	k="49" />
<hkern g1="w" 	g2="U" 	k="39" />
<hkern g1="w" 	g2="comma,period,quotesinglbase,quotedblbase,ellipsis" 	k="70" />
<hkern g1="w" 	g2="a,c,d,e,g,o,q" 	k="25" />
<hkern g1="w" 	g2="s" 	k="14" />
<hkern g1="w" 	g2="S" 	k="76" />
<hkern g1="w" 	g2="Z" 	k="111" />
<hkern g1="x" 	g2="J" 	k="72" />
<hkern g1="x" 	g2="Y" 	k="231" />
<hkern g1="x" 	g2="T" 	k="211" />
<hkern g1="x" 	g2="B,D,E,F,H,I,K,L,M,N,P,R" 	k="51" />
<hkern g1="x" 	g2="U" 	k="70" />
<hkern g1="x" 	g2="C,G,O,Q" 	k="27" />
<hkern g1="x" 	g2="a,c,d,e,g,o,q" 	k="27" />
<hkern g1="x" 	g2="guillemotleft,guilsinglleft" 	k="39" />
<hkern g1="x" 	g2="S" 	k="23" />
<hkern g1="z" 	g2="J" 	k="74" />
<hkern g1="z" 	g2="Y" 	k="250" />
<hkern g1="z" 	g2="T" 	k="209" />
<hkern g1="z" 	g2="B,D,E,F,H,I,K,L,M,N,P,R" 	k="51" />
<hkern g1="z" 	g2="U" 	k="70" />
<hkern g1="z" 	g2="V" 	k="188" />
<hkern g1="z" 	g2="W" 	k="176" />
<hkern g1="z" 	g2="C,G,O,Q" 	k="27" />
<hkern g1="z" 	g2="a,c,d,e,g,o,q" 	k="16" />
<hkern g1="z" 	g2="guillemotleft,guilsinglleft" 	k="39" />
<hkern g1="z" 	g2="hyphen,endash,emdash" 	k="16" />
<hkern g1="z" 	g2="S" 	k="18" />
<hkern g1="z" 	g2="X" 	k="10" />
<hkern g1="z" 	g2="question" 	k="41" />
<hkern g1="z" 	g2="parenright" 	k="49" />
<hkern g1="z" 	g2="asterisk" 	k="16" />
<hkern g1="z" 	g2="braceright" 	k="53" />
<hkern g1="z" 	g2="backslash" 	k="70" />
<hkern g1="z" 	g2="bracketright" 	k="70" />
<hkern g1="z" 	g2="trademark" 	k="27" />
<hkern g1="b,o,p" 	g2="t" 	k="12" />
<hkern g1="b,o,p" 	g2="y" 	k="27" />
<hkern g1="b,o,p" 	g2="A" 	k="27" />
<hkern g1="b,o,p" 	g2="J" 	k="74" />
<hkern g1="b,o,p" 	g2="Y" 	k="309" />
<hkern g1="b,o,p" 	g2="T" 	k="229" />
<hkern g1="b,o,p" 	g2="quoteright,quotedblright" 	k="18" />
<hkern g1="b,o,p" 	g2="quotedbl,quotesingle" 	k="43" />
<hkern g1="b,o,p" 	g2="f" 	k="16" />
<hkern g1="b,o,p" 	g2="v" 	k="27" />
<hkern g1="b,o,p" 	g2="w" 	k="25" />
<hkern g1="b,o,p" 	g2="B,D,E,F,H,I,K,L,M,N,P,R" 	k="47" />
<hkern g1="b,o,p" 	g2="U" 	k="70" />
<hkern g1="b,o,p" 	g2="V" 	k="215" />
<hkern g1="b,o,p" 	g2="W" 	k="199" />
<hkern g1="b,o,p" 	g2="quoteleft,quotedblleft" 	k="27" />
<hkern g1="b,o,p" 	g2="C,G,O,Q" 	k="39" />
<hkern g1="b,o,p" 	g2="z" 	k="31" />
<hkern g1="b,o,p" 	g2="S" 	k="51" />
<hkern g1="b,o,p" 	g2="x" 	k="27" />
<hkern g1="b,o,p" 	g2="Z" 	k="57" />
<hkern g1="b,o,p" 	g2="X" 	k="78" />
<hkern g1="b,o,p" 	g2="question" 	k="76" />
<hkern g1="b,o,p" 	g2="parenright" 	k="96" />
<hkern g1="b,o,p" 	g2="asterisk" 	k="55" />
<hkern g1="b,o,p" 	g2="braceright" 	k="76" />
<hkern g1="b,o,p" 	g2="backslash" 	k="106" />
<hkern g1="b,o,p" 	g2="bracketright" 	k="92" />
<hkern g1="b,o,p" 	g2="trademark" 	k="53" />
<hkern g1="d" 	g2="A" 	k="12" />
<hkern g1="d" 	g2="J" 	k="47" />
<hkern g1="d" 	g2="Y" 	k="37" />
<hkern g1="d" 	g2="T" 	k="63" />
<hkern g1="d" 	g2="B,D,E,F,H,I,K,L,M,N,P,R" 	k="23" />
<hkern g1="d" 	g2="U" 	k="41" />
<hkern g1="d" 	g2="V" 	k="27" />
<hkern g1="d" 	g2="W" 	k="23" />
<hkern g1="d" 	g2="C,G,O,Q" 	k="33" />
<hkern g1="d" 	g2="S" 	k="31" />
<hkern g1="d" 	g2="Z" 	k="27" />
<hkern g1="d" 	g2="X" 	k="35" />
<hkern g1="a,g,q,u" 	g2="A" 	k="10" />
<hkern g1="a,g,q,u" 	g2="J" 	k="51" />
<hkern g1="a,g,q,u" 	g2="Y" 	k="258" />
<hkern g1="a,g,q,u" 	g2="T" 	k="233" />
<hkern g1="a,g,q,u" 	g2="B,D,E,F,H,I,K,L,M,N,P,R" 	k="23" />
<hkern g1="a,g,q,u" 	g2="U" 	k="39" />
<hkern g1="a,g,q,u" 	g2="V" 	k="176" />
<hkern g1="a,g,q,u" 	g2="W" 	k="164" />
<hkern g1="a,g,q,u" 	g2="C,G,O,Q" 	k="39" />
<hkern g1="a,g,q,u" 	g2="S" 	k="41" />
<hkern g1="a,g,q,u" 	g2="Z" 	k="27" />
<hkern g1="a,g,q,u" 	g2="X" 	k="41" />
<hkern g1="a,g,q,u" 	g2="question" 	k="49" />
<hkern g1="a,g,q,u" 	g2="parenright" 	k="68" />
<hkern g1="a,g,q,u" 	g2="asterisk" 	k="20" />
<hkern g1="a,g,q,u" 	g2="braceright" 	k="61" />
<hkern g1="a,g,q,u" 	g2="backslash" 	k="78" />
<hkern g1="a,g,q,u" 	g2="bracketright" 	k="78" />
<hkern g1="a,g,q,u" 	g2="trademark" 	k="27" />
<hkern g1="h,m,n" 	g2="y" 	k="10" />
<hkern g1="h,m,n" 	g2="J" 	k="51" />
<hkern g1="h,m,n" 	g2="Y" 	k="297" />
<hkern g1="h,m,n" 	g2="T" 	k="236" />
<hkern g1="h,m,n" 	g2="quotedbl,quotesingle" 	k="27" />
<hkern g1="h,m,n" 	g2="f" 	k="8" />
<hkern g1="h,m,n" 	g2="v" 	k="12" />
<hkern g1="h,m,n" 	g2="w" 	k="8" />
<hkern g1="h,m,n" 	g2="B,D,E,F,H,I,K,L,M,N,P,R" 	k="25" />
<hkern g1="h,m,n" 	g2="U" 	k="43" />
<hkern g1="h,m,n" 	g2="V" 	k="209" />
<hkern g1="h,m,n" 	g2="W" 	k="195" />
<hkern g1="h,m,n" 	g2="C,G,O,Q" 	k="49" />
<hkern g1="h,m,n" 	g2="S" 	k="39" />
<hkern g1="h,m,n" 	g2="Z" 	k="23" />
<hkern g1="h,m,n" 	g2="X" 	k="35" />
<hkern g1="h,m,n" 	g2="question" 	k="61" />
<hkern g1="h,m,n" 	g2="parenright" 	k="68" />
<hkern g1="h,m,n" 	g2="asterisk" 	k="41" />
<hkern g1="h,m,n" 	g2="braceright" 	k="66" />
<hkern g1="h,m,n" 	g2="backslash" 	k="96" />
<hkern g1="h,m,n" 	g2="bracketright" 	k="82" />
<hkern g1="h,m,n" 	g2="trademark" 	k="37" />
</font>
</defs></svg> 